ISO-10303-21;
HEADER;
/* Generated by software containing ST-Developer
 * from STEP Tools, Inc. (www.steptools.com) 
 */

FILE_DESCRIPTION(
/* description */ (''),
/* implementation_level */ '2;1');

FILE_NAME(
/* name */ 
'D:\\Git-Projekty\\project-supernova\\Elektronika v2\\Supernova_Lib\\S
harp GP2Y0D340K_THT_Simple.stp',
/* time_stamp */ '2016-09-22T11:33:33+02:00',
/* author */ ('Aleksander Sil'),
/* organization */ (''),
/* preprocessor_version */ 'ST-DEVELOPER v16.1',
/* originating_system */ 'Autodesk Inventor 2016',
/* authorisation */ '');

FILE_SCHEMA (('AUTOMOTIVE_DESIGN { 1 0 10303 214 3 1 1 }'));
ENDSEC;

DATA;
#10=MECHANICAL_DESIGN_GEOMETRIC_PRESENTATION_REPRESENTATION('',(#807,#806,
#805,#813,#809,#812,#811,#810,#808,#820,#816,#818,#815,#817,#819,#814,#833,
#824,#823,#825,#832,#826,#827,#822,#829,#830,#828,#831,#821,#840,#835,#838,
#841,#836,#834,#837,#839,#842),#1394);
#11=SHAPE_REPRESENTATION_RELATIONSHIP('SRR','None',#1403,#12);
#12=ADVANCED_BREP_SHAPE_REPRESENTATION('',(#13),#1393);
#13=MANIFOLD_SOLID_BREP('Bry\X2\0142\X0\a1',#890);
#14=CIRCLE('',#933,2.);
#15=CIRCLE('',#934,2.);
#16=CIRCLE('',#937,2.);
#17=CIRCLE('',#938,2.);
#18=CYLINDRICAL_SURFACE('',#932,2.);
#19=CYLINDRICAL_SURFACE('',#936,2.);
#20=FACE_BOUND('',#87,.T.);
#21=FACE_BOUND('',#88,.T.);
#22=FACE_BOUND('',#89,.T.);
#23=FACE_BOUND('',#90,.T.);
#24=FACE_BOUND('',#91,.T.);
#25=FACE_BOUND('',#122,.T.);
#26=FACE_BOUND('',#125,.T.);
#27=FACE_BOUND('',#129,.T.);
#28=FACE_BOUND('',#130,.T.);
#29=FACE_OUTER_BOUND('',#76,.T.);
#30=FACE_OUTER_BOUND('',#77,.T.);
#31=FACE_OUTER_BOUND('',#78,.T.);
#32=FACE_OUTER_BOUND('',#79,.T.);
#33=FACE_OUTER_BOUND('',#80,.T.);
#34=FACE_OUTER_BOUND('',#81,.T.);
#35=FACE_OUTER_BOUND('',#82,.T.);
#36=FACE_OUTER_BOUND('',#83,.T.);
#37=FACE_OUTER_BOUND('',#84,.T.);
#38=FACE_OUTER_BOUND('',#85,.T.);
#39=FACE_OUTER_BOUND('',#86,.T.);
#40=FACE_OUTER_BOUND('',#92,.T.);
#41=FACE_OUTER_BOUND('',#93,.T.);
#42=FACE_OUTER_BOUND('',#94,.T.);
#43=FACE_OUTER_BOUND('',#95,.T.);
#44=FACE_OUTER_BOUND('',#96,.T.);
#45=FACE_OUTER_BOUND('',#97,.T.);
#46=FACE_OUTER_BOUND('',#98,.T.);
#47=FACE_OUTER_BOUND('',#99,.T.);
#48=FACE_OUTER_BOUND('',#100,.T.);
#49=FACE_OUTER_BOUND('',#101,.T.);
#50=FACE_OUTER_BOUND('',#102,.T.);
#51=FACE_OUTER_BOUND('',#103,.T.);
#52=FACE_OUTER_BOUND('',#104,.T.);
#53=FACE_OUTER_BOUND('',#105,.T.);
#54=FACE_OUTER_BOUND('',#106,.T.);
#55=FACE_OUTER_BOUND('',#107,.T.);
#56=FACE_OUTER_BOUND('',#108,.T.);
#57=FACE_OUTER_BOUND('',#109,.T.);
#58=FACE_OUTER_BOUND('',#110,.T.);
#59=FACE_OUTER_BOUND('',#111,.T.);
#60=FACE_OUTER_BOUND('',#112,.T.);
#61=FACE_OUTER_BOUND('',#113,.T.);
#62=FACE_OUTER_BOUND('',#114,.T.);
#63=FACE_OUTER_BOUND('',#115,.T.);
#64=FACE_OUTER_BOUND('',#116,.T.);
#65=FACE_OUTER_BOUND('',#117,.T.);
#66=FACE_OUTER_BOUND('',#118,.T.);
#67=FACE_OUTER_BOUND('',#119,.T.);
#68=FACE_OUTER_BOUND('',#120,.T.);
#69=FACE_OUTER_BOUND('',#121,.T.);
#70=FACE_OUTER_BOUND('',#123,.T.);
#71=FACE_OUTER_BOUND('',#124,.T.);
#72=FACE_OUTER_BOUND('',#126,.T.);
#73=FACE_OUTER_BOUND('',#127,.T.);
#74=FACE_OUTER_BOUND('',#128,.T.);
#75=FACE_OUTER_BOUND('',#131,.T.);
#76=EDGE_LOOP('',(#536,#537,#538,#539,#540,#541));
#77=EDGE_LOOP('',(#542,#543,#544,#545,#546,#547));
#78=EDGE_LOOP('',(#548,#549,#550,#551,#552,#553));
#79=EDGE_LOOP('',(#554,#555,#556,#557,#558,#559));
#80=EDGE_LOOP('',(#560,#561,#562,#563,#564,#565));
#81=EDGE_LOOP('',(#566,#567,#568,#569,#570,#571));
#82=EDGE_LOOP('',(#572,#573,#574,#575,#576,#577));
#83=EDGE_LOOP('',(#578,#579,#580,#581,#582,#583));
#84=EDGE_LOOP('',(#584,#585,#586,#587,#588,#589));
#85=EDGE_LOOP('',(#590,#591,#592,#593,#594,#595));
#86=EDGE_LOOP('',(#596,#597,#598,#599));
#87=EDGE_LOOP('',(#600,#601,#602,#603));
#88=EDGE_LOOP('',(#604,#605,#606,#607));
#89=EDGE_LOOP('',(#608,#609,#610,#611));
#90=EDGE_LOOP('',(#612,#613,#614,#615));
#91=EDGE_LOOP('',(#616,#617,#618,#619));
#92=EDGE_LOOP('',(#620,#621,#622,#623));
#93=EDGE_LOOP('',(#624,#625,#626,#627));
#94=EDGE_LOOP('',(#628,#629,#630,#631));
#95=EDGE_LOOP('',(#632,#633,#634,#635));
#96=EDGE_LOOP('',(#636,#637,#638,#639));
#97=EDGE_LOOP('',(#640,#641,#642,#643,#644,#645));
#98=EDGE_LOOP('',(#646,#647,#648,#649));
#99=EDGE_LOOP('',(#650,#651,#652,#653));
#100=EDGE_LOOP('',(#654,#655,#656,#657));
#101=EDGE_LOOP('',(#658,#659,#660,#661));
#102=EDGE_LOOP('',(#662,#663,#664,#665));
#103=EDGE_LOOP('',(#666,#667,#668,#669));
#104=EDGE_LOOP('',(#670,#671,#672,#673));
#105=EDGE_LOOP('',(#674,#675,#676,#677));
#106=EDGE_LOOP('',(#678,#679,#680,#681));
#107=EDGE_LOOP('',(#682,#683,#684,#685));
#108=EDGE_LOOP('',(#686,#687,#688,#689));
#109=EDGE_LOOP('',(#690,#691,#692,#693));
#110=EDGE_LOOP('',(#694,#695,#696,#697));
#111=EDGE_LOOP('',(#698,#699,#700,#701));
#112=EDGE_LOOP('',(#702,#703,#704,#705));
#113=EDGE_LOOP('',(#706,#707,#708,#709));
#114=EDGE_LOOP('',(#710,#711,#712,#713));
#115=EDGE_LOOP('',(#714,#715,#716,#717));
#116=EDGE_LOOP('',(#718,#719,#720,#721));
#117=EDGE_LOOP('',(#722,#723,#724,#725));
#118=EDGE_LOOP('',(#726,#727,#728,#729));
#119=EDGE_LOOP('',(#730,#731,#732,#733));
#120=EDGE_LOOP('',(#734,#735,#736,#737,#738,#739));
#121=EDGE_LOOP('',(#740));
#122=EDGE_LOOP('',(#741));
#123=EDGE_LOOP('',(#742));
#124=EDGE_LOOP('',(#743));
#125=EDGE_LOOP('',(#744));
#126=EDGE_LOOP('',(#745));
#127=EDGE_LOOP('',(#746,#747,#748,#749));
#128=EDGE_LOOP('',(#750,#751,#752,#753));
#129=EDGE_LOOP('',(#754));
#130=EDGE_LOOP('',(#755));
#131=EDGE_LOOP('',(#756,#757,#758,#759));
#132=LINE('',#1159,#240);
#133=LINE('',#1161,#241);
#134=LINE('',#1163,#242);
#135=LINE('',#1165,#243);
#136=LINE('',#1167,#244);
#137=LINE('',#1168,#245);
#138=LINE('',#1172,#246);
#139=LINE('',#1174,#247);
#140=LINE('',#1176,#248);
#141=LINE('',#1178,#249);
#142=LINE('',#1180,#250);
#143=LINE('',#1181,#251);
#144=LINE('',#1185,#252);
#145=LINE('',#1187,#253);
#146=LINE('',#1189,#254);
#147=LINE('',#1191,#255);
#148=LINE('',#1193,#256);
#149=LINE('',#1194,#257);
#150=LINE('',#1198,#258);
#151=LINE('',#1200,#259);
#152=LINE('',#1202,#260);
#153=LINE('',#1204,#261);
#154=LINE('',#1206,#262);
#155=LINE('',#1207,#263);
#156=LINE('',#1211,#264);
#157=LINE('',#1213,#265);
#158=LINE('',#1215,#266);
#159=LINE('',#1217,#267);
#160=LINE('',#1219,#268);
#161=LINE('',#1220,#269);
#162=LINE('',#1224,#270);
#163=LINE('',#1226,#271);
#164=LINE('',#1228,#272);
#165=LINE('',#1230,#273);
#166=LINE('',#1232,#274);
#167=LINE('',#1233,#275);
#168=LINE('',#1237,#276);
#169=LINE('',#1239,#277);
#170=LINE('',#1241,#278);
#171=LINE('',#1243,#279);
#172=LINE('',#1245,#280);
#173=LINE('',#1246,#281);
#174=LINE('',#1250,#282);
#175=LINE('',#1252,#283);
#176=LINE('',#1254,#284);
#177=LINE('',#1256,#285);
#178=LINE('',#1258,#286);
#179=LINE('',#1259,#287);
#180=LINE('',#1263,#288);
#181=LINE('',#1265,#289);
#182=LINE('',#1267,#290);
#183=LINE('',#1269,#291);
#184=LINE('',#1271,#292);
#185=LINE('',#1272,#293);
#186=LINE('',#1276,#294);
#187=LINE('',#1278,#295);
#188=LINE('',#1280,#296);
#189=LINE('',#1282,#297);
#190=LINE('',#1284,#298);
#191=LINE('',#1285,#299);
#192=LINE('',#1289,#300);
#193=LINE('',#1291,#301);
#194=LINE('',#1293,#302);
#195=LINE('',#1294,#303);
#196=LINE('',#1295,#304);
#197=LINE('',#1296,#305);
#198=LINE('',#1297,#306);
#199=LINE('',#1298,#307);
#200=LINE('',#1299,#308);
#201=LINE('',#1300,#309);
#202=LINE('',#1301,#310);
#203=LINE('',#1302,#311);
#204=LINE('',#1303,#312);
#205=LINE('',#1304,#313);
#206=LINE('',#1306,#314);
#207=LINE('',#1308,#315);
#208=LINE('',#1310,#316);
#209=LINE('',#1312,#317);
#210=LINE('',#1314,#318);
#211=LINE('',#1317,#319);
#212=LINE('',#1319,#320);
#213=LINE('',#1321,#321);
#214=LINE('',#1323,#322);
#215=LINE('',#1324,#323);
#216=LINE('',#1326,#324);
#217=LINE('',#1328,#325);
#218=LINE('',#1330,#326);
#219=LINE('',#1332,#327);
#220=LINE('',#1334,#328);
#221=LINE('',#1336,#329);
#222=LINE('',#1338,#330);
#223=LINE('',#1340,#331);
#224=LINE('',#1342,#332);
#225=LINE('',#1344,#333);
#226=LINE('',#1346,#334);
#227=LINE('',#1348,#335);
#228=LINE('',#1350,#336);
#229=LINE('',#1352,#337);
#230=LINE('',#1358,#338);
#231=LINE('',#1362,#339);
#232=LINE('',#1364,#340);
#233=LINE('',#1365,#341);
#234=LINE('',#1367,#342);
#235=LINE('',#1370,#343);
#236=LINE('',#1372,#344);
#237=LINE('',#1373,#345);
#238=LINE('',#1387,#346);
#239=LINE('',#1388,#347);
#240=VECTOR('',#947,1.);
#241=VECTOR('',#948,0.3);
#242=VECTOR('',#949,1.3);
#243=VECTOR('',#950,4.7);
#244=VECTOR('',#951,0.3);
#245=VECTOR('',#952,4.4);
#246=VECTOR('',#955,1.);
#247=VECTOR('',#956,4.4);
#248=VECTOR('',#957,0.3);
#249=VECTOR('',#958,4.7);
#250=VECTOR('',#959,1.3);
#251=VECTOR('',#960,0.3);
#252=VECTOR('',#963,1.);
#253=VECTOR('',#964,0.3);
#254=VECTOR('',#965,1.3);
#255=VECTOR('',#966,4.7);
#256=VECTOR('',#967,0.3);
#257=VECTOR('',#968,4.4);
#258=VECTOR('',#971,1.);
#259=VECTOR('',#972,4.4);
#260=VECTOR('',#973,0.3);
#261=VECTOR('',#974,4.7);
#262=VECTOR('',#975,1.3);
#263=VECTOR('',#976,0.3);
#264=VECTOR('',#979,1.);
#265=VECTOR('',#980,0.3);
#266=VECTOR('',#981,1.3);
#267=VECTOR('',#982,4.7);
#268=VECTOR('',#983,0.3);
#269=VECTOR('',#984,4.4);
#270=VECTOR('',#987,1.);
#271=VECTOR('',#988,0.3);
#272=VECTOR('',#989,1.3);
#273=VECTOR('',#990,4.7);
#274=VECTOR('',#991,0.3);
#275=VECTOR('',#992,4.4);
#276=VECTOR('',#995,1.);
#277=VECTOR('',#996,4.4);
#278=VECTOR('',#997,0.3);
#279=VECTOR('',#998,4.7);
#280=VECTOR('',#999,1.3);
#281=VECTOR('',#1000,0.3);
#282=VECTOR('',#1003,1.);
#283=VECTOR('',#1004,0.3);
#284=VECTOR('',#1005,1.3);
#285=VECTOR('',#1006,4.7);
#286=VECTOR('',#1007,0.3);
#287=VECTOR('',#1008,4.4);
#288=VECTOR('',#1011,1.);
#289=VECTOR('',#1012,4.4);
#290=VECTOR('',#1013,0.3);
#291=VECTOR('',#1014,4.7);
#292=VECTOR('',#1015,1.3);
#293=VECTOR('',#1016,0.3);
#294=VECTOR('',#1019,1.);
#295=VECTOR('',#1020,4.4);
#296=VECTOR('',#1021,0.3);
#297=VECTOR('',#1022,4.7);
#298=VECTOR('',#1023,1.3);
#299=VECTOR('',#1024,0.3);
#300=VECTOR('',#1027,7.);
#301=VECTOR('',#1028,15.);
#302=VECTOR('',#1029,7.);
#303=VECTOR('',#1030,15.);
#304=VECTOR('',#1031,0.5);
#305=VECTOR('',#1032,0.5);
#306=VECTOR('',#1033,0.5);
#307=VECTOR('',#1034,0.5);
#308=VECTOR('',#1035,0.5);
#309=VECTOR('',#1036,0.5);
#310=VECTOR('',#1037,0.5);
#311=VECTOR('',#1038,0.5);
#312=VECTOR('',#1039,0.5);
#313=VECTOR('',#1040,0.5);
#314=VECTOR('',#1043,0.5);
#315=VECTOR('',#1046,0.5);
#316=VECTOR('',#1049,0.5);
#317=VECTOR('',#1052,0.5);
#318=VECTOR('',#1055,0.5);
#319=VECTOR('',#1058,1.4);
#320=VECTOR('',#1059,2.);
#321=VECTOR('',#1060,8.2);
#322=VECTOR('',#1061,9.);
#323=VECTOR('',#1062,9.6);
#324=VECTOR('',#1065,0.500000000000002);
#325=VECTOR('',#1068,0.500000000000003);
#326=VECTOR('',#1071,0.500000000000002);
#327=VECTOR('',#1074,0.5);
#328=VECTOR('',#1077,0.5);
#329=VECTOR('',#1080,0.5);
#330=VECTOR('',#1083,0.5);
#331=VECTOR('',#1086,0.5);
#332=VECTOR('',#1089,0.5);
#333=VECTOR('',#1092,0.5);
#334=VECTOR('',#1095,0.5);
#335=VECTOR('',#1098,0.5);
#336=VECTOR('',#1101,0.5);
#337=VECTOR('',#1104,0.5);
#338=VECTOR('',#1115,0.5);
#339=VECTOR('',#1120,15.);
#340=VECTOR('',#1121,15.);
#341=VECTOR('',#1122,2.);
#342=VECTOR('',#1125,1.4);
#343=VECTOR('',#1128,9.6);
#344=VECTOR('',#1129,9.);
#345=VECTOR('',#1130,8.2);
#346=VECTOR('',#1149,15.);
#347=VECTOR('',#1150,15.);
#348=VERTEX_POINT('',#1157);
#349=VERTEX_POINT('',#1158);
#350=VERTEX_POINT('',#1160);
#351=VERTEX_POINT('',#1162);
#352=VERTEX_POINT('',#1164);
#353=VERTEX_POINT('',#1166);
#354=VERTEX_POINT('',#1170);
#355=VERTEX_POINT('',#1171);
#356=VERTEX_POINT('',#1173);
#357=VERTEX_POINT('',#1175);
#358=VERTEX_POINT('',#1177);
#359=VERTEX_POINT('',#1179);
#360=VERTEX_POINT('',#1183);
#361=VERTEX_POINT('',#1184);
#362=VERTEX_POINT('',#1186);
#363=VERTEX_POINT('',#1188);
#364=VERTEX_POINT('',#1190);
#365=VERTEX_POINT('',#1192);
#366=VERTEX_POINT('',#1196);
#367=VERTEX_POINT('',#1197);
#368=VERTEX_POINT('',#1199);
#369=VERTEX_POINT('',#1201);
#370=VERTEX_POINT('',#1203);
#371=VERTEX_POINT('',#1205);
#372=VERTEX_POINT('',#1209);
#373=VERTEX_POINT('',#1210);
#374=VERTEX_POINT('',#1212);
#375=VERTEX_POINT('',#1214);
#376=VERTEX_POINT('',#1216);
#377=VERTEX_POINT('',#1218);
#378=VERTEX_POINT('',#1222);
#379=VERTEX_POINT('',#1223);
#380=VERTEX_POINT('',#1225);
#381=VERTEX_POINT('',#1227);
#382=VERTEX_POINT('',#1229);
#383=VERTEX_POINT('',#1231);
#384=VERTEX_POINT('',#1235);
#385=VERTEX_POINT('',#1236);
#386=VERTEX_POINT('',#1238);
#387=VERTEX_POINT('',#1240);
#388=VERTEX_POINT('',#1242);
#389=VERTEX_POINT('',#1244);
#390=VERTEX_POINT('',#1248);
#391=VERTEX_POINT('',#1249);
#392=VERTEX_POINT('',#1251);
#393=VERTEX_POINT('',#1253);
#394=VERTEX_POINT('',#1255);
#395=VERTEX_POINT('',#1257);
#396=VERTEX_POINT('',#1261);
#397=VERTEX_POINT('',#1262);
#398=VERTEX_POINT('',#1264);
#399=VERTEX_POINT('',#1266);
#400=VERTEX_POINT('',#1268);
#401=VERTEX_POINT('',#1270);
#402=VERTEX_POINT('',#1274);
#403=VERTEX_POINT('',#1275);
#404=VERTEX_POINT('',#1277);
#405=VERTEX_POINT('',#1279);
#406=VERTEX_POINT('',#1281);
#407=VERTEX_POINT('',#1283);
#408=VERTEX_POINT('',#1287);
#409=VERTEX_POINT('',#1288);
#410=VERTEX_POINT('',#1290);
#411=VERTEX_POINT('',#1292);
#412=VERTEX_POINT('',#1316);
#413=VERTEX_POINT('',#1318);
#414=VERTEX_POINT('',#1320);
#415=VERTEX_POINT('',#1322);
#416=VERTEX_POINT('',#1361);
#417=VERTEX_POINT('',#1363);
#418=VERTEX_POINT('',#1369);
#419=VERTEX_POINT('',#1371);
#420=VERTEX_POINT('',#1375);
#421=VERTEX_POINT('',#1377);
#422=VERTEX_POINT('',#1381);
#423=VERTEX_POINT('',#1383);
#424=EDGE_CURVE('',#348,#349,#132,.T.);
#425=EDGE_CURVE('',#348,#350,#133,.T.);
#426=EDGE_CURVE('',#351,#350,#134,.T.);
#427=EDGE_CURVE('',#352,#351,#135,.T.);
#428=EDGE_CURVE('',#353,#352,#136,.T.);
#429=EDGE_CURVE('',#349,#353,#137,.T.);
#430=EDGE_CURVE('',#354,#355,#138,.T.);
#431=EDGE_CURVE('',#356,#354,#139,.T.);
#432=EDGE_CURVE('',#357,#356,#140,.T.);
#433=EDGE_CURVE('',#358,#357,#141,.T.);
#434=EDGE_CURVE('',#359,#358,#142,.T.);
#435=EDGE_CURVE('',#359,#355,#143,.T.);
#436=EDGE_CURVE('',#360,#361,#144,.T.);
#437=EDGE_CURVE('',#360,#362,#145,.T.);
#438=EDGE_CURVE('',#363,#362,#146,.T.);
#439=EDGE_CURVE('',#364,#363,#147,.T.);
#440=EDGE_CURVE('',#365,#364,#148,.T.);
#441=EDGE_CURVE('',#361,#365,#149,.T.);
#442=EDGE_CURVE('',#366,#367,#150,.T.);
#443=EDGE_CURVE('',#368,#366,#151,.T.);
#444=EDGE_CURVE('',#369,#368,#152,.T.);
#445=EDGE_CURVE('',#370,#369,#153,.T.);
#446=EDGE_CURVE('',#371,#370,#154,.T.);
#447=EDGE_CURVE('',#371,#367,#155,.T.);
#448=EDGE_CURVE('',#372,#373,#156,.T.);
#449=EDGE_CURVE('',#372,#374,#157,.T.);
#450=EDGE_CURVE('',#375,#374,#158,.T.);
#451=EDGE_CURVE('',#376,#375,#159,.T.);
#452=EDGE_CURVE('',#377,#376,#160,.T.);
#453=EDGE_CURVE('',#373,#377,#161,.T.);
#454=EDGE_CURVE('',#378,#379,#162,.T.);
#455=EDGE_CURVE('',#378,#380,#163,.T.);
#456=EDGE_CURVE('',#381,#380,#164,.T.);
#457=EDGE_CURVE('',#382,#381,#165,.T.);
#458=EDGE_CURVE('',#383,#382,#166,.T.);
#459=EDGE_CURVE('',#379,#383,#167,.T.);
#460=EDGE_CURVE('',#384,#385,#168,.T.);
#461=EDGE_CURVE('',#386,#384,#169,.T.);
#462=EDGE_CURVE('',#387,#386,#170,.T.);
#463=EDGE_CURVE('',#388,#387,#171,.T.);
#464=EDGE_CURVE('',#389,#388,#172,.T.);
#465=EDGE_CURVE('',#389,#385,#173,.T.);
#466=EDGE_CURVE('',#390,#391,#174,.T.);
#467=EDGE_CURVE('',#390,#392,#175,.T.);
#468=EDGE_CURVE('',#393,#392,#176,.T.);
#469=EDGE_CURVE('',#394,#393,#177,.T.);
#470=EDGE_CURVE('',#395,#394,#178,.T.);
#471=EDGE_CURVE('',#391,#395,#179,.T.);
#472=EDGE_CURVE('',#396,#397,#180,.T.);
#473=EDGE_CURVE('',#398,#396,#181,.T.);
#474=EDGE_CURVE('',#399,#398,#182,.T.);
#475=EDGE_CURVE('',#400,#399,#183,.T.);
#476=EDGE_CURVE('',#401,#400,#184,.T.);
#477=EDGE_CURVE('',#401,#397,#185,.T.);
#478=EDGE_CURVE('',#402,#403,#186,.T.);
#479=EDGE_CURVE('',#404,#402,#187,.T.);
#480=EDGE_CURVE('',#405,#404,#188,.T.);
#481=EDGE_CURVE('',#406,#405,#189,.T.);
#482=EDGE_CURVE('',#407,#406,#190,.T.);
#483=EDGE_CURVE('',#407,#403,#191,.T.);
#484=EDGE_CURVE('',#408,#409,#192,.T.);
#485=EDGE_CURVE('',#409,#410,#193,.T.);
#486=EDGE_CURVE('',#411,#410,#194,.T.);
#487=EDGE_CURVE('',#411,#408,#195,.T.);
#488=EDGE_CURVE('',#348,#403,#196,.T.);
#489=EDGE_CURVE('',#407,#350,#197,.T.);
#490=EDGE_CURVE('',#359,#362,#198,.T.);
#491=EDGE_CURVE('',#360,#355,#199,.T.);
#492=EDGE_CURVE('',#372,#385,#200,.T.);
#493=EDGE_CURVE('',#389,#374,#201,.T.);
#494=EDGE_CURVE('',#378,#397,#202,.T.);
#495=EDGE_CURVE('',#401,#380,#203,.T.);
#496=EDGE_CURVE('',#371,#392,#204,.T.);
#497=EDGE_CURVE('',#390,#367,#205,.T.);
#498=EDGE_CURVE('',#379,#396,#206,.T.);
#499=EDGE_CURVE('',#373,#384,#207,.T.);
#500=EDGE_CURVE('',#391,#366,#208,.T.);
#501=EDGE_CURVE('',#361,#354,#209,.T.);
#502=EDGE_CURVE('',#349,#402,#210,.T.);
#503=EDGE_CURVE('',#410,#412,#211,.T.);
#504=EDGE_CURVE('',#412,#413,#212,.T.);
#505=EDGE_CURVE('',#414,#413,#213,.T.);
#506=EDGE_CURVE('',#415,#414,#214,.T.);
#507=EDGE_CURVE('',#415,#411,#215,.T.);
#508=EDGE_CURVE('',#383,#398,#216,.T.);
#509=EDGE_CURVE('',#377,#386,#217,.T.);
#510=EDGE_CURVE('',#395,#368,#218,.T.);
#511=EDGE_CURVE('',#365,#356,#219,.T.);
#512=EDGE_CURVE('',#353,#404,#220,.T.);
#513=EDGE_CURVE('',#393,#370,#221,.T.);
#514=EDGE_CURVE('',#381,#400,#222,.T.);
#515=EDGE_CURVE('',#375,#388,#223,.T.);
#516=EDGE_CURVE('',#363,#358,#224,.T.);
#517=EDGE_CURVE('',#382,#399,#225,.T.);
#518=EDGE_CURVE('',#376,#387,#226,.T.);
#519=EDGE_CURVE('',#394,#369,#227,.T.);
#520=EDGE_CURVE('',#364,#357,#228,.T.);
#521=EDGE_CURVE('',#352,#405,#229,.T.);
#522=EDGE_CURVE('',#351,#406,#230,.T.);
#523=EDGE_CURVE('',#413,#416,#231,.T.);
#524=EDGE_CURVE('',#412,#417,#232,.T.);
#525=EDGE_CURVE('',#416,#417,#233,.T.);
#526=EDGE_CURVE('',#417,#409,#234,.T.);
#527=EDGE_CURVE('',#408,#418,#235,.T.);
#528=EDGE_CURVE('',#418,#419,#236,.T.);
#529=EDGE_CURVE('',#416,#419,#237,.T.);
#530=EDGE_CURVE('',#420,#420,#14,.T.);
#531=EDGE_CURVE('',#421,#421,#15,.T.);
#532=EDGE_CURVE('',#422,#422,#16,.T.);
#533=EDGE_CURVE('',#423,#423,#17,.T.);
#534=EDGE_CURVE('',#418,#415,#238,.T.);
#535=EDGE_CURVE('',#419,#414,#239,.T.);
#536=ORIENTED_EDGE('',*,*,#424,.F.);
#537=ORIENTED_EDGE('',*,*,#425,.T.);
#538=ORIENTED_EDGE('',*,*,#426,.F.);
#539=ORIENTED_EDGE('',*,*,#427,.F.);
#540=ORIENTED_EDGE('',*,*,#428,.F.);
#541=ORIENTED_EDGE('',*,*,#429,.F.);
#542=ORIENTED_EDGE('',*,*,#430,.F.);
#543=ORIENTED_EDGE('',*,*,#431,.F.);
#544=ORIENTED_EDGE('',*,*,#432,.F.);
#545=ORIENTED_EDGE('',*,*,#433,.F.);
#546=ORIENTED_EDGE('',*,*,#434,.F.);
#547=ORIENTED_EDGE('',*,*,#435,.T.);
#548=ORIENTED_EDGE('',*,*,#436,.F.);
#549=ORIENTED_EDGE('',*,*,#437,.T.);
#550=ORIENTED_EDGE('',*,*,#438,.F.);
#551=ORIENTED_EDGE('',*,*,#439,.F.);
#552=ORIENTED_EDGE('',*,*,#440,.F.);
#553=ORIENTED_EDGE('',*,*,#441,.F.);
#554=ORIENTED_EDGE('',*,*,#442,.F.);
#555=ORIENTED_EDGE('',*,*,#443,.F.);
#556=ORIENTED_EDGE('',*,*,#444,.F.);
#557=ORIENTED_EDGE('',*,*,#445,.F.);
#558=ORIENTED_EDGE('',*,*,#446,.F.);
#559=ORIENTED_EDGE('',*,*,#447,.T.);
#560=ORIENTED_EDGE('',*,*,#448,.F.);
#561=ORIENTED_EDGE('',*,*,#449,.T.);
#562=ORIENTED_EDGE('',*,*,#450,.F.);
#563=ORIENTED_EDGE('',*,*,#451,.F.);
#564=ORIENTED_EDGE('',*,*,#452,.F.);
#565=ORIENTED_EDGE('',*,*,#453,.F.);
#566=ORIENTED_EDGE('',*,*,#454,.F.);
#567=ORIENTED_EDGE('',*,*,#455,.T.);
#568=ORIENTED_EDGE('',*,*,#456,.F.);
#569=ORIENTED_EDGE('',*,*,#457,.F.);
#570=ORIENTED_EDGE('',*,*,#458,.F.);
#571=ORIENTED_EDGE('',*,*,#459,.F.);
#572=ORIENTED_EDGE('',*,*,#460,.F.);
#573=ORIENTED_EDGE('',*,*,#461,.F.);
#574=ORIENTED_EDGE('',*,*,#462,.F.);
#575=ORIENTED_EDGE('',*,*,#463,.F.);
#576=ORIENTED_EDGE('',*,*,#464,.F.);
#577=ORIENTED_EDGE('',*,*,#465,.T.);
#578=ORIENTED_EDGE('',*,*,#466,.F.);
#579=ORIENTED_EDGE('',*,*,#467,.T.);
#580=ORIENTED_EDGE('',*,*,#468,.F.);
#581=ORIENTED_EDGE('',*,*,#469,.F.);
#582=ORIENTED_EDGE('',*,*,#470,.F.);
#583=ORIENTED_EDGE('',*,*,#471,.F.);
#584=ORIENTED_EDGE('',*,*,#472,.F.);
#585=ORIENTED_EDGE('',*,*,#473,.F.);
#586=ORIENTED_EDGE('',*,*,#474,.F.);
#587=ORIENTED_EDGE('',*,*,#475,.F.);
#588=ORIENTED_EDGE('',*,*,#476,.F.);
#589=ORIENTED_EDGE('',*,*,#477,.T.);
#590=ORIENTED_EDGE('',*,*,#478,.F.);
#591=ORIENTED_EDGE('',*,*,#479,.F.);
#592=ORIENTED_EDGE('',*,*,#480,.F.);
#593=ORIENTED_EDGE('',*,*,#481,.F.);
#594=ORIENTED_EDGE('',*,*,#482,.F.);
#595=ORIENTED_EDGE('',*,*,#483,.T.);
#596=ORIENTED_EDGE('',*,*,#484,.T.);
#597=ORIENTED_EDGE('',*,*,#485,.T.);
#598=ORIENTED_EDGE('',*,*,#486,.F.);
#599=ORIENTED_EDGE('',*,*,#487,.T.);
#600=ORIENTED_EDGE('',*,*,#488,.T.);
#601=ORIENTED_EDGE('',*,*,#483,.F.);
#602=ORIENTED_EDGE('',*,*,#489,.T.);
#603=ORIENTED_EDGE('',*,*,#425,.F.);
#604=ORIENTED_EDGE('',*,*,#435,.F.);
#605=ORIENTED_EDGE('',*,*,#490,.T.);
#606=ORIENTED_EDGE('',*,*,#437,.F.);
#607=ORIENTED_EDGE('',*,*,#491,.T.);
#608=ORIENTED_EDGE('',*,*,#492,.T.);
#609=ORIENTED_EDGE('',*,*,#465,.F.);
#610=ORIENTED_EDGE('',*,*,#493,.T.);
#611=ORIENTED_EDGE('',*,*,#449,.F.);
#612=ORIENTED_EDGE('',*,*,#494,.T.);
#613=ORIENTED_EDGE('',*,*,#477,.F.);
#614=ORIENTED_EDGE('',*,*,#495,.T.);
#615=ORIENTED_EDGE('',*,*,#455,.F.);
#616=ORIENTED_EDGE('',*,*,#447,.F.);
#617=ORIENTED_EDGE('',*,*,#496,.T.);
#618=ORIENTED_EDGE('',*,*,#467,.F.);
#619=ORIENTED_EDGE('',*,*,#497,.T.);
#620=ORIENTED_EDGE('',*,*,#454,.T.);
#621=ORIENTED_EDGE('',*,*,#498,.T.);
#622=ORIENTED_EDGE('',*,*,#472,.T.);
#623=ORIENTED_EDGE('',*,*,#494,.F.);
#624=ORIENTED_EDGE('',*,*,#448,.T.);
#625=ORIENTED_EDGE('',*,*,#499,.T.);
#626=ORIENTED_EDGE('',*,*,#460,.T.);
#627=ORIENTED_EDGE('',*,*,#492,.F.);
#628=ORIENTED_EDGE('',*,*,#442,.T.);
#629=ORIENTED_EDGE('',*,*,#497,.F.);
#630=ORIENTED_EDGE('',*,*,#466,.T.);
#631=ORIENTED_EDGE('',*,*,#500,.T.);
#632=ORIENTED_EDGE('',*,*,#430,.T.);
#633=ORIENTED_EDGE('',*,*,#491,.F.);
#634=ORIENTED_EDGE('',*,*,#436,.T.);
#635=ORIENTED_EDGE('',*,*,#501,.T.);
#636=ORIENTED_EDGE('',*,*,#424,.T.);
#637=ORIENTED_EDGE('',*,*,#502,.T.);
#638=ORIENTED_EDGE('',*,*,#478,.T.);
#639=ORIENTED_EDGE('',*,*,#488,.F.);
#640=ORIENTED_EDGE('',*,*,#486,.T.);
#641=ORIENTED_EDGE('',*,*,#503,.T.);
#642=ORIENTED_EDGE('',*,*,#504,.T.);
#643=ORIENTED_EDGE('',*,*,#505,.F.);
#644=ORIENTED_EDGE('',*,*,#506,.F.);
#645=ORIENTED_EDGE('',*,*,#507,.T.);
#646=ORIENTED_EDGE('',*,*,#459,.T.);
#647=ORIENTED_EDGE('',*,*,#508,.T.);
#648=ORIENTED_EDGE('',*,*,#473,.T.);
#649=ORIENTED_EDGE('',*,*,#498,.F.);
#650=ORIENTED_EDGE('',*,*,#453,.T.);
#651=ORIENTED_EDGE('',*,*,#509,.T.);
#652=ORIENTED_EDGE('',*,*,#461,.T.);
#653=ORIENTED_EDGE('',*,*,#499,.F.);
#654=ORIENTED_EDGE('',*,*,#443,.T.);
#655=ORIENTED_EDGE('',*,*,#500,.F.);
#656=ORIENTED_EDGE('',*,*,#471,.T.);
#657=ORIENTED_EDGE('',*,*,#510,.T.);
#658=ORIENTED_EDGE('',*,*,#431,.T.);
#659=ORIENTED_EDGE('',*,*,#501,.F.);
#660=ORIENTED_EDGE('',*,*,#441,.T.);
#661=ORIENTED_EDGE('',*,*,#511,.T.);
#662=ORIENTED_EDGE('',*,*,#429,.T.);
#663=ORIENTED_EDGE('',*,*,#512,.T.);
#664=ORIENTED_EDGE('',*,*,#479,.T.);
#665=ORIENTED_EDGE('',*,*,#502,.F.);
#666=ORIENTED_EDGE('',*,*,#446,.T.);
#667=ORIENTED_EDGE('',*,*,#513,.F.);
#668=ORIENTED_EDGE('',*,*,#468,.T.);
#669=ORIENTED_EDGE('',*,*,#496,.F.);
#670=ORIENTED_EDGE('',*,*,#456,.T.);
#671=ORIENTED_EDGE('',*,*,#495,.F.);
#672=ORIENTED_EDGE('',*,*,#476,.T.);
#673=ORIENTED_EDGE('',*,*,#514,.F.);
#674=ORIENTED_EDGE('',*,*,#450,.T.);
#675=ORIENTED_EDGE('',*,*,#493,.F.);
#676=ORIENTED_EDGE('',*,*,#464,.T.);
#677=ORIENTED_EDGE('',*,*,#515,.F.);
#678=ORIENTED_EDGE('',*,*,#434,.T.);
#679=ORIENTED_EDGE('',*,*,#516,.F.);
#680=ORIENTED_EDGE('',*,*,#438,.T.);
#681=ORIENTED_EDGE('',*,*,#490,.F.);
#682=ORIENTED_EDGE('',*,*,#458,.T.);
#683=ORIENTED_EDGE('',*,*,#517,.T.);
#684=ORIENTED_EDGE('',*,*,#474,.T.);
#685=ORIENTED_EDGE('',*,*,#508,.F.);
#686=ORIENTED_EDGE('',*,*,#452,.T.);
#687=ORIENTED_EDGE('',*,*,#518,.T.);
#688=ORIENTED_EDGE('',*,*,#462,.T.);
#689=ORIENTED_EDGE('',*,*,#509,.F.);
#690=ORIENTED_EDGE('',*,*,#444,.T.);
#691=ORIENTED_EDGE('',*,*,#510,.F.);
#692=ORIENTED_EDGE('',*,*,#470,.T.);
#693=ORIENTED_EDGE('',*,*,#519,.T.);
#694=ORIENTED_EDGE('',*,*,#432,.T.);
#695=ORIENTED_EDGE('',*,*,#511,.F.);
#696=ORIENTED_EDGE('',*,*,#440,.T.);
#697=ORIENTED_EDGE('',*,*,#520,.T.);
#698=ORIENTED_EDGE('',*,*,#428,.T.);
#699=ORIENTED_EDGE('',*,*,#521,.T.);
#700=ORIENTED_EDGE('',*,*,#480,.T.);
#701=ORIENTED_EDGE('',*,*,#512,.F.);
#702=ORIENTED_EDGE('',*,*,#457,.T.);
#703=ORIENTED_EDGE('',*,*,#514,.T.);
#704=ORIENTED_EDGE('',*,*,#475,.T.);
#705=ORIENTED_EDGE('',*,*,#517,.F.);
#706=ORIENTED_EDGE('',*,*,#451,.T.);
#707=ORIENTED_EDGE('',*,*,#515,.T.);
#708=ORIENTED_EDGE('',*,*,#463,.T.);
#709=ORIENTED_EDGE('',*,*,#518,.F.);
#710=ORIENTED_EDGE('',*,*,#445,.T.);
#711=ORIENTED_EDGE('',*,*,#519,.F.);
#712=ORIENTED_EDGE('',*,*,#469,.T.);
#713=ORIENTED_EDGE('',*,*,#513,.T.);
#714=ORIENTED_EDGE('',*,*,#433,.T.);
#715=ORIENTED_EDGE('',*,*,#520,.F.);
#716=ORIENTED_EDGE('',*,*,#439,.T.);
#717=ORIENTED_EDGE('',*,*,#516,.T.);
#718=ORIENTED_EDGE('',*,*,#427,.T.);
#719=ORIENTED_EDGE('',*,*,#522,.T.);
#720=ORIENTED_EDGE('',*,*,#481,.T.);
#721=ORIENTED_EDGE('',*,*,#521,.F.);
#722=ORIENTED_EDGE('',*,*,#426,.T.);
#723=ORIENTED_EDGE('',*,*,#489,.F.);
#724=ORIENTED_EDGE('',*,*,#482,.T.);
#725=ORIENTED_EDGE('',*,*,#522,.F.);
#726=ORIENTED_EDGE('',*,*,#523,.F.);
#727=ORIENTED_EDGE('',*,*,#504,.F.);
#728=ORIENTED_EDGE('',*,*,#524,.T.);
#729=ORIENTED_EDGE('',*,*,#525,.F.);
#730=ORIENTED_EDGE('',*,*,#485,.F.);
#731=ORIENTED_EDGE('',*,*,#526,.F.);
#732=ORIENTED_EDGE('',*,*,#524,.F.);
#733=ORIENTED_EDGE('',*,*,#503,.F.);
#734=ORIENTED_EDGE('',*,*,#484,.F.);
#735=ORIENTED_EDGE('',*,*,#527,.T.);
#736=ORIENTED_EDGE('',*,*,#528,.T.);
#737=ORIENTED_EDGE('',*,*,#529,.F.);
#738=ORIENTED_EDGE('',*,*,#525,.T.);
#739=ORIENTED_EDGE('',*,*,#526,.T.);
#740=ORIENTED_EDGE('',*,*,#530,.T.);
#741=ORIENTED_EDGE('',*,*,#531,.F.);
#742=ORIENTED_EDGE('',*,*,#530,.F.);
#743=ORIENTED_EDGE('',*,*,#532,.T.);
#744=ORIENTED_EDGE('',*,*,#533,.F.);
#745=ORIENTED_EDGE('',*,*,#532,.F.);
#746=ORIENTED_EDGE('',*,*,#534,.T.);
#747=ORIENTED_EDGE('',*,*,#506,.T.);
#748=ORIENTED_EDGE('',*,*,#535,.F.);
#749=ORIENTED_EDGE('',*,*,#528,.F.);
#750=ORIENTED_EDGE('',*,*,#523,.T.);
#751=ORIENTED_EDGE('',*,*,#529,.T.);
#752=ORIENTED_EDGE('',*,*,#535,.T.);
#753=ORIENTED_EDGE('',*,*,#505,.T.);
#754=ORIENTED_EDGE('',*,*,#531,.T.);
#755=ORIENTED_EDGE('',*,*,#533,.T.);
#756=ORIENTED_EDGE('',*,*,#487,.F.);
#757=ORIENTED_EDGE('',*,*,#507,.F.);
#758=ORIENTED_EDGE('',*,*,#534,.F.);
#759=ORIENTED_EDGE('',*,*,#527,.F.);
#760=PLANE('',#892);
#761=PLANE('',#893);
#762=PLANE('',#894);
#763=PLANE('',#895);
#764=PLANE('',#896);
#765=PLANE('',#897);
#766=PLANE('',#898);
#767=PLANE('',#899);
#768=PLANE('',#900);
#769=PLANE('',#901);
#770=PLANE('',#902);
#771=PLANE('',#903);
#772=PLANE('',#904);
#773=PLANE('',#905);
#774=PLANE('',#906);
#775=PLANE('',#907);
#776=PLANE('',#908);
#777=PLANE('',#909);
#778=PLANE('',#910);
#779=PLANE('',#911);
#780=PLANE('',#912);
#781=PLANE('',#913);
#782=PLANE('',#914);
#783=PLANE('',#915);
#784=PLANE('',#916);
#785=PLANE('',#917);
#786=PLANE('',#918);
#787=PLANE('',#919);
#788=PLANE('',#920);
#789=PLANE('',#921);
#790=PLANE('',#922);
#791=PLANE('',#923);
#792=PLANE('',#924);
#793=PLANE('',#925);
#794=PLANE('',#926);
#795=PLANE('',#927);
#796=PLANE('',#928);
#797=PLANE('',#929);
#798=PLANE('',#930);
#799=PLANE('',#931);
#800=PLANE('',#935);
#801=PLANE('',#939);
#802=PLANE('',#940);
#803=PLANE('',#941);
#804=PLANE('',#942);
#805=STYLED_ITEM('',(#1413),#843);
#806=STYLED_ITEM('',(#1413),#844);
#807=STYLED_ITEM('',(#1413),#845);
#808=STYLED_ITEM('',(#1413),#846);
#809=STYLED_ITEM('',(#1413),#847);
#810=STYLED_ITEM('',(#1413),#848);
#811=STYLED_ITEM('',(#1413),#849);
#812=STYLED_ITEM('',(#1413),#850);
#813=STYLED_ITEM('',(#1413),#851);
#814=STYLED_ITEM('',(#1413),#852);
#815=STYLED_ITEM('',(#1413),#854);
#816=STYLED_ITEM('',(#1413),#855);
#817=STYLED_ITEM('',(#1413),#856);
#818=STYLED_ITEM('',(#1413),#857);
#819=STYLED_ITEM('',(#1413),#858);
#820=STYLED_ITEM('',(#1413),#860);
#821=STYLED_ITEM('',(#1413),#861);
#822=STYLED_ITEM('',(#1413),#862);
#823=STYLED_ITEM('',(#1413),#863);
#824=STYLED_ITEM('',(#1413),#864);
#825=STYLED_ITEM('',(#1413),#865);
#826=STYLED_ITEM('',(#1413),#866);
#827=STYLED_ITEM('',(#1413),#867);
#828=STYLED_ITEM('',(#1413),#868);
#829=STYLED_ITEM('',(#1413),#869);
#830=STYLED_ITEM('',(#1413),#870);
#831=STYLED_ITEM('',(#1413),#871);
#832=STYLED_ITEM('',(#1413),#872);
#833=STYLED_ITEM('',(#1413),#873);
#834=STYLED_ITEM('',(#1413),#874);
#835=STYLED_ITEM('',(#1413),#875);
#836=STYLED_ITEM('',(#1413),#876);
#837=STYLED_ITEM('',(#1413),#877);
#838=STYLED_ITEM('',(#1413),#878);
#839=STYLED_ITEM('',(#1413),#879);
#840=STYLED_ITEM('',(#1414),#883);
#841=STYLED_ITEM('',(#1414),#884);
#842=STYLED_ITEM('',(#1412),#13);
#843=ADVANCED_FACE('',(#29),#760,.T.);
#844=ADVANCED_FACE('',(#30),#761,.T.);
#845=ADVANCED_FACE('',(#31),#762,.T.);
#846=ADVANCED_FACE('',(#32),#763,.T.);
#847=ADVANCED_FACE('',(#33),#764,.T.);
#848=ADVANCED_FACE('',(#34),#765,.T.);
#849=ADVANCED_FACE('',(#35),#766,.T.);
#850=ADVANCED_FACE('',(#36),#767,.T.);
#851=ADVANCED_FACE('',(#37),#768,.T.);
#852=ADVANCED_FACE('',(#38),#769,.T.);
#853=ADVANCED_FACE('',(#39,#20,#21,#22,#23,#24),#770,.T.);
#854=ADVANCED_FACE('',(#40),#771,.T.);
#855=ADVANCED_FACE('',(#41),#772,.T.);
#856=ADVANCED_FACE('',(#42),#773,.T.);
#857=ADVANCED_FACE('',(#43),#774,.T.);
#858=ADVANCED_FACE('',(#44),#775,.T.);
#859=ADVANCED_FACE('',(#45),#776,.T.);
#860=ADVANCED_FACE('',(#46),#777,.T.);
#861=ADVANCED_FACE('',(#47),#778,.T.);
#862=ADVANCED_FACE('',(#48),#779,.T.);
#863=ADVANCED_FACE('',(#49),#780,.T.);
#864=ADVANCED_FACE('',(#50),#781,.T.);
#865=ADVANCED_FACE('',(#51),#782,.T.);
#866=ADVANCED_FACE('',(#52),#783,.T.);
#867=ADVANCED_FACE('',(#53),#784,.T.);
#868=ADVANCED_FACE('',(#54),#785,.T.);
#869=ADVANCED_FACE('',(#55),#786,.T.);
#870=ADVANCED_FACE('',(#56),#787,.T.);
#871=ADVANCED_FACE('',(#57),#788,.T.);
#872=ADVANCED_FACE('',(#58),#789,.T.);
#873=ADVANCED_FACE('',(#59),#790,.T.);
#874=ADVANCED_FACE('',(#60),#791,.T.);
#875=ADVANCED_FACE('',(#61),#792,.T.);
#876=ADVANCED_FACE('',(#62),#793,.T.);
#877=ADVANCED_FACE('',(#63),#794,.T.);
#878=ADVANCED_FACE('',(#64),#795,.T.);
#879=ADVANCED_FACE('',(#65),#796,.T.);
#880=ADVANCED_FACE('',(#66),#797,.F.);
#881=ADVANCED_FACE('',(#67),#798,.F.);
#882=ADVANCED_FACE('',(#68),#799,.T.);
#883=ADVANCED_FACE('',(#69,#25),#18,.F.);
#884=ADVANCED_FACE('',(#70),#800,.T.);
#885=ADVANCED_FACE('',(#71,#26),#19,.F.);
#886=ADVANCED_FACE('',(#72),#801,.T.);
#887=ADVANCED_FACE('',(#73),#802,.T.);
#888=ADVANCED_FACE('',(#74,#27,#28),#803,.T.);
#889=ADVANCED_FACE('',(#75),#804,.F.);
#890=CLOSED_SHELL('',(#843,#844,#845,#846,#847,#848,#849,#850,#851,#852,
#853,#854,#855,#856,#857,#858,#859,#860,#861,#862,#863,#864,#865,#866,#867,
#868,#869,#870,#871,#872,#873,#874,#875,#876,#877,#878,#879,#880,#881,#882,
#883,#884,#885,#886,#887,#888,#889));
#891=AXIS2_PLACEMENT_3D('placement',#1155,#943,#944);
#892=AXIS2_PLACEMENT_3D('',#1156,#945,#946);
#893=AXIS2_PLACEMENT_3D('',#1169,#953,#954);
#894=AXIS2_PLACEMENT_3D('',#1182,#961,#962);
#895=AXIS2_PLACEMENT_3D('',#1195,#969,#970);
#896=AXIS2_PLACEMENT_3D('',#1208,#977,#978);
#897=AXIS2_PLACEMENT_3D('',#1221,#985,#986);
#898=AXIS2_PLACEMENT_3D('',#1234,#993,#994);
#899=AXIS2_PLACEMENT_3D('',#1247,#1001,#1002);
#900=AXIS2_PLACEMENT_3D('',#1260,#1009,#1010);
#901=AXIS2_PLACEMENT_3D('',#1273,#1017,#1018);
#902=AXIS2_PLACEMENT_3D('',#1286,#1025,#1026);
#903=AXIS2_PLACEMENT_3D('',#1305,#1041,#1042);
#904=AXIS2_PLACEMENT_3D('',#1307,#1044,#1045);
#905=AXIS2_PLACEMENT_3D('',#1309,#1047,#1048);
#906=AXIS2_PLACEMENT_3D('',#1311,#1050,#1051);
#907=AXIS2_PLACEMENT_3D('',#1313,#1053,#1054);
#908=AXIS2_PLACEMENT_3D('',#1315,#1056,#1057);
#909=AXIS2_PLACEMENT_3D('',#1325,#1063,#1064);
#910=AXIS2_PLACEMENT_3D('',#1327,#1066,#1067);
#911=AXIS2_PLACEMENT_3D('',#1329,#1069,#1070);
#912=AXIS2_PLACEMENT_3D('',#1331,#1072,#1073);
#913=AXIS2_PLACEMENT_3D('',#1333,#1075,#1076);
#914=AXIS2_PLACEMENT_3D('',#1335,#1078,#1079);
#915=AXIS2_PLACEMENT_3D('',#1337,#1081,#1082);
#916=AXIS2_PLACEMENT_3D('',#1339,#1084,#1085);
#917=AXIS2_PLACEMENT_3D('',#1341,#1087,#1088);
#918=AXIS2_PLACEMENT_3D('',#1343,#1090,#1091);
#919=AXIS2_PLACEMENT_3D('',#1345,#1093,#1094);
#920=AXIS2_PLACEMENT_3D('',#1347,#1096,#1097);
#921=AXIS2_PLACEMENT_3D('',#1349,#1099,#1100);
#922=AXIS2_PLACEMENT_3D('',#1351,#1102,#1103);
#923=AXIS2_PLACEMENT_3D('',#1353,#1105,#1106);
#924=AXIS2_PLACEMENT_3D('',#1354,#1107,#1108);
#925=AXIS2_PLACEMENT_3D('',#1355,#1109,#1110);
#926=AXIS2_PLACEMENT_3D('',#1356,#1111,#1112);
#927=AXIS2_PLACEMENT_3D('',#1357,#1113,#1114);
#928=AXIS2_PLACEMENT_3D('',#1359,#1116,#1117);
#929=AXIS2_PLACEMENT_3D('',#1360,#1118,#1119);
#930=AXIS2_PLACEMENT_3D('',#1366,#1123,#1124);
#931=AXIS2_PLACEMENT_3D('',#1368,#1126,#1127);
#932=AXIS2_PLACEMENT_3D('',#1374,#1131,#1132);
#933=AXIS2_PLACEMENT_3D('',#1376,#1133,#1134);
#934=AXIS2_PLACEMENT_3D('',#1378,#1135,#1136);
#935=AXIS2_PLACEMENT_3D('',#1379,#1137,#1138);
#936=AXIS2_PLACEMENT_3D('',#1380,#1139,#1140);
#937=AXIS2_PLACEMENT_3D('',#1382,#1141,#1142);
#938=AXIS2_PLACEMENT_3D('',#1384,#1143,#1144);
#939=AXIS2_PLACEMENT_3D('',#1385,#1145,#1146);
#940=AXIS2_PLACEMENT_3D('',#1386,#1147,#1148);
#941=AXIS2_PLACEMENT_3D('',#1389,#1151,#1152);
#942=AXIS2_PLACEMENT_3D('',#1390,#1153,#1154);
#943=DIRECTION('axis',(0.,0.,1.));
#944=DIRECTION('refdir',(1.,0.,0.));
#945=DIRECTION('center_axis',(1.,0.,0.));
#946=DIRECTION('ref_axis',(0.,-1.,0.));
#947=DIRECTION('',(0.,0.,1.));
#948=DIRECTION('',(0.,1.,0.));
#949=DIRECTION('',(0.,0.,-1.));
#950=DIRECTION('',(0.,1.,0.));
#951=DIRECTION('',(0.,0.,1.));
#952=DIRECTION('',(0.,-1.,0.));
#953=DIRECTION('center_axis',(-1.,0.,0.));
#954=DIRECTION('ref_axis',(0.,1.,0.));
#955=DIRECTION('',(0.,0.,-1.));
#956=DIRECTION('',(0.,1.,0.));
#957=DIRECTION('',(0.,0.,-1.));
#958=DIRECTION('',(0.,-1.,0.));
#959=DIRECTION('',(0.,0.,1.));
#960=DIRECTION('',(0.,-1.,0.));
#961=DIRECTION('center_axis',(1.,0.,0.));
#962=DIRECTION('ref_axis',(0.,-1.,0.));
#963=DIRECTION('',(0.,0.,1.));
#964=DIRECTION('',(0.,1.,0.));
#965=DIRECTION('',(0.,0.,-1.));
#966=DIRECTION('',(0.,1.,0.));
#967=DIRECTION('',(0.,0.,1.));
#968=DIRECTION('',(0.,-1.,0.));
#969=DIRECTION('center_axis',(-1.,0.,0.));
#970=DIRECTION('ref_axis',(0.,1.,0.));
#971=DIRECTION('',(0.,0.,-1.));
#972=DIRECTION('',(0.,1.,0.));
#973=DIRECTION('',(0.,0.,-1.));
#974=DIRECTION('',(0.,-1.,0.));
#975=DIRECTION('',(0.,0.,1.));
#976=DIRECTION('',(0.,-1.,0.));
#977=DIRECTION('center_axis',(1.,0.,0.));
#978=DIRECTION('ref_axis',(0.,-1.,0.));
#979=DIRECTION('',(0.,0.,1.));
#980=DIRECTION('',(0.,1.,0.));
#981=DIRECTION('',(0.,0.,-1.));
#982=DIRECTION('',(0.,1.,0.));
#983=DIRECTION('',(0.,0.,1.));
#984=DIRECTION('',(0.,-1.,0.));
#985=DIRECTION('center_axis',(1.,0.,0.));
#986=DIRECTION('ref_axis',(0.,-1.,0.));
#987=DIRECTION('',(0.,0.,1.));
#988=DIRECTION('',(0.,1.,0.));
#989=DIRECTION('',(0.,0.,-1.));
#990=DIRECTION('',(0.,1.,0.));
#991=DIRECTION('',(0.,0.,1.));
#992=DIRECTION('',(0.,-1.,0.));
#993=DIRECTION('center_axis',(-1.,0.,0.));
#994=DIRECTION('ref_axis',(0.,1.,0.));
#995=DIRECTION('',(0.,0.,-1.));
#996=DIRECTION('',(0.,1.,0.));
#997=DIRECTION('',(0.,0.,-1.));
#998=DIRECTION('',(0.,-1.,0.));
#999=DIRECTION('',(0.,0.,1.));
#1000=DIRECTION('',(0.,-1.,0.));
#1001=DIRECTION('center_axis',(1.,0.,0.));
#1002=DIRECTION('ref_axis',(0.,-1.,0.));
#1003=DIRECTION('',(0.,0.,1.));
#1004=DIRECTION('',(0.,1.,0.));
#1005=DIRECTION('',(0.,0.,-1.));
#1006=DIRECTION('',(0.,1.,0.));
#1007=DIRECTION('',(0.,0.,1.));
#1008=DIRECTION('',(0.,-1.,0.));
#1009=DIRECTION('center_axis',(-1.,0.,0.));
#1010=DIRECTION('ref_axis',(0.,1.,0.));
#1011=DIRECTION('',(0.,0.,-1.));
#1012=DIRECTION('',(0.,1.,0.));
#1013=DIRECTION('',(0.,0.,-1.));
#1014=DIRECTION('',(0.,-1.,0.));
#1015=DIRECTION('',(0.,0.,1.));
#1016=DIRECTION('',(0.,-1.,0.));
#1017=DIRECTION('center_axis',(-1.,0.,0.));
#1018=DIRECTION('ref_axis',(0.,1.,0.));
#1019=DIRECTION('',(0.,0.,-1.));
#1020=DIRECTION('',(0.,1.,0.));
#1021=DIRECTION('',(0.,0.,-1.));
#1022=DIRECTION('',(0.,-1.,0.));
#1023=DIRECTION('',(0.,0.,1.));
#1024=DIRECTION('',(0.,-1.,0.));
#1025=DIRECTION('center_axis',(0.,0.,1.));
#1026=DIRECTION('ref_axis',(1.,0.,0.));
#1027=DIRECTION('',(0.,1.,0.));
#1028=DIRECTION('',(-1.,0.,0.));
#1029=DIRECTION('',(0.,1.,0.));
#1030=DIRECTION('',(1.,0.,0.));
#1031=DIRECTION('',(-1.,0.,0.));
#1032=DIRECTION('',(1.,0.,0.));
#1033=DIRECTION('',(1.,0.,0.));
#1034=DIRECTION('',(-1.,0.,0.));
#1035=DIRECTION('',(-1.,0.,0.));
#1036=DIRECTION('',(1.,0.,0.));
#1037=DIRECTION('',(-1.,0.,0.));
#1038=DIRECTION('',(1.,0.,0.));
#1039=DIRECTION('',(1.,0.,0.));
#1040=DIRECTION('',(-1.,0.,0.));
#1041=DIRECTION('center_axis',(0.,-1.,0.));
#1042=DIRECTION('ref_axis',(0.,0.,1.));
#1043=DIRECTION('',(-1.,0.,0.));
#1044=DIRECTION('center_axis',(0.,-1.,0.));
#1045=DIRECTION('ref_axis',(0.,0.,1.));
#1046=DIRECTION('',(-1.,0.,0.));
#1047=DIRECTION('center_axis',(0.,-1.,0.));
#1048=DIRECTION('ref_axis',(0.,0.,1.));
#1049=DIRECTION('',(-1.,0.,0.));
#1050=DIRECTION('center_axis',(0.,-1.,0.));
#1051=DIRECTION('ref_axis',(0.,0.,1.));
#1052=DIRECTION('',(-1.,0.,0.));
#1053=DIRECTION('center_axis',(0.,-1.,0.));
#1054=DIRECTION('ref_axis',(0.,0.,1.));
#1055=DIRECTION('',(-1.,0.,0.));
#1056=DIRECTION('center_axis',(-1.,0.,0.));
#1057=DIRECTION('ref_axis',(0.,0.,1.));
#1058=DIRECTION('',(0.,0.,-1.));
#1059=DIRECTION('',(0.,1.,0.));
#1060=DIRECTION('',(0.,0.,1.));
#1061=DIRECTION('',(0.,1.,0.));
#1062=DIRECTION('',(0.,0.,1.));
#1063=DIRECTION('center_axis',(0.,0.,-1.));
#1064=DIRECTION('ref_axis',(0.,-1.,0.));
#1065=DIRECTION('',(-1.,0.,0.));
#1066=DIRECTION('center_axis',(0.,0.,-1.));
#1067=DIRECTION('ref_axis',(0.,-1.,0.));
#1068=DIRECTION('',(-1.,0.,0.));
#1069=DIRECTION('center_axis',(0.,0.,-1.));
#1070=DIRECTION('ref_axis',(0.,-1.,0.));
#1071=DIRECTION('',(-1.,0.,0.));
#1072=DIRECTION('center_axis',(0.,0.,-1.));
#1073=DIRECTION('ref_axis',(0.,-1.,0.));
#1074=DIRECTION('',(-1.,0.,0.));
#1075=DIRECTION('center_axis',(0.,0.,-1.));
#1076=DIRECTION('ref_axis',(0.,-1.,0.));
#1077=DIRECTION('',(-1.,0.,0.));
#1078=DIRECTION('center_axis',(0.,1.,0.));
#1079=DIRECTION('ref_axis',(0.,0.,-1.));
#1080=DIRECTION('',(-1.,0.,0.));
#1081=DIRECTION('center_axis',(0.,1.,0.));
#1082=DIRECTION('ref_axis',(0.,0.,-1.));
#1083=DIRECTION('',(-1.,0.,0.));
#1084=DIRECTION('center_axis',(0.,1.,0.));
#1085=DIRECTION('ref_axis',(0.,0.,-1.));
#1086=DIRECTION('',(-1.,0.,0.));
#1087=DIRECTION('center_axis',(0.,1.,0.));
#1088=DIRECTION('ref_axis',(0.,0.,-1.));
#1089=DIRECTION('',(-1.,0.,0.));
#1090=DIRECTION('center_axis',(0.,-1.,0.));
#1091=DIRECTION('ref_axis',(0.,0.,1.));
#1092=DIRECTION('',(-1.,0.,0.));
#1093=DIRECTION('center_axis',(0.,-1.,0.));
#1094=DIRECTION('ref_axis',(0.,0.,1.));
#1095=DIRECTION('',(-1.,0.,0.));
#1096=DIRECTION('center_axis',(0.,-1.,0.));
#1097=DIRECTION('ref_axis',(0.,0.,1.));
#1098=DIRECTION('',(-1.,0.,0.));
#1099=DIRECTION('center_axis',(0.,-1.,0.));
#1100=DIRECTION('ref_axis',(0.,0.,1.));
#1101=DIRECTION('',(-1.,0.,0.));
#1102=DIRECTION('center_axis',(0.,-1.,0.));
#1103=DIRECTION('ref_axis',(0.,0.,1.));
#1104=DIRECTION('',(-1.,0.,0.));
#1105=DIRECTION('center_axis',(0.,0.,1.));
#1106=DIRECTION('ref_axis',(0.,1.,0.));
#1107=DIRECTION('center_axis',(0.,0.,1.));
#1108=DIRECTION('ref_axis',(0.,1.,0.));
#1109=DIRECTION('center_axis',(0.,0.,1.));
#1110=DIRECTION('ref_axis',(0.,1.,0.));
#1111=DIRECTION('center_axis',(0.,0.,1.));
#1112=DIRECTION('ref_axis',(0.,1.,0.));
#1113=DIRECTION('center_axis',(0.,0.,1.));
#1114=DIRECTION('ref_axis',(0.,1.,0.));
#1115=DIRECTION('',(-1.,0.,0.));
#1116=DIRECTION('center_axis',(0.,1.,0.));
#1117=DIRECTION('ref_axis',(0.,0.,-1.));
#1118=DIRECTION('center_axis',(0.,0.,-1.));
#1119=DIRECTION('ref_axis',(1.,0.,0.));
#1120=DIRECTION('',(1.,0.,0.));
#1121=DIRECTION('',(1.,0.,0.));
#1122=DIRECTION('',(0.,-1.,0.));
#1123=DIRECTION('center_axis',(0.,-1.,0.));
#1124=DIRECTION('ref_axis',(0.,0.,-1.));
#1125=DIRECTION('',(0.,0.,1.));
#1126=DIRECTION('center_axis',(1.,0.,0.));
#1127=DIRECTION('ref_axis',(0.,0.,-1.));
#1128=DIRECTION('',(0.,0.,-1.));
#1129=DIRECTION('',(0.,1.,0.));
#1130=DIRECTION('',(0.,0.,-1.));
#1131=DIRECTION('center_axis',(0.,-1.,0.));
#1132=DIRECTION('ref_axis',(-1.,0.,0.));
#1133=DIRECTION('center_axis',(0.,-1.,0.));
#1134=DIRECTION('ref_axis',(-1.,0.,0.));
#1135=DIRECTION('center_axis',(0.,-1.,0.));
#1136=DIRECTION('ref_axis',(-1.,0.,0.));
#1137=DIRECTION('center_axis',(0.,1.,0.));
#1138=DIRECTION('ref_axis',(0.,0.,1.));
#1139=DIRECTION('center_axis',(0.,-1.,0.));
#1140=DIRECTION('ref_axis',(-1.,0.,0.));
#1141=DIRECTION('center_axis',(0.,-1.,0.));
#1142=DIRECTION('ref_axis',(-1.,0.,0.));
#1143=DIRECTION('center_axis',(0.,-1.,0.));
#1144=DIRECTION('ref_axis',(-1.,0.,0.));
#1145=DIRECTION('center_axis',(0.,1.,0.));
#1146=DIRECTION('ref_axis',(0.,0.,1.));
#1147=DIRECTION('center_axis',(0.,0.,-1.));
#1148=DIRECTION('ref_axis',(-1.,0.,0.));
#1149=DIRECTION('',(-1.,0.,0.));
#1150=DIRECTION('',(-1.,0.,0.));
#1151=DIRECTION('center_axis',(0.,1.,0.));
#1152=DIRECTION('ref_axis',(0.,0.,1.));
#1153=DIRECTION('center_axis',(0.,1.,0.));
#1154=DIRECTION('ref_axis',(0.,0.,1.));
#1155=CARTESIAN_POINT('',(0.,0.,0.));
#1156=CARTESIAN_POINT('Origin',(2.75,2.7,1.3));
#1157=CARTESIAN_POINT('',(2.75,2.1,-1.11022302462516E-15));
#1158=CARTESIAN_POINT('',(2.75,2.1,0.999999999999999));
#1159=CARTESIAN_POINT('',(2.75,2.1,0.649999999999999));
#1160=CARTESIAN_POINT('',(2.75,2.4,-1.11022302462516E-15));
#1161=CARTESIAN_POINT('',(2.75,1.45,-1.11022302462516E-15));
#1162=CARTESIAN_POINT('',(2.75,2.4,1.3));
#1163=CARTESIAN_POINT('',(2.75,2.4,1.3));
#1164=CARTESIAN_POINT('',(2.75,-2.3,1.3));
#1165=CARTESIAN_POINT('',(2.75,2.4,1.3));
#1166=CARTESIAN_POINT('',(2.75,-2.3,0.999999999999999));
#1167=CARTESIAN_POINT('',(2.75,-2.3,1.15));
#1168=CARTESIAN_POINT('',(2.75,2.4,0.999999999999999));
#1169=CARTESIAN_POINT('Origin',(4.75,-2.3,1.3));
#1170=CARTESIAN_POINT('',(4.75,2.1,0.999999999999999));
#1171=CARTESIAN_POINT('',(4.75,2.1,-1.11022302462516E-15));
#1172=CARTESIAN_POINT('',(4.75,2.1,0.649999999999999));
#1173=CARTESIAN_POINT('',(4.75,-2.3,0.999999999999999));
#1174=CARTESIAN_POINT('',(4.75,-0.1,0.999999999999999));
#1175=CARTESIAN_POINT('',(4.75,-2.3,1.3));
#1176=CARTESIAN_POINT('',(4.75,-2.3,1.15));
#1177=CARTESIAN_POINT('',(4.75,2.4,1.3));
#1178=CARTESIAN_POINT('',(4.75,-0.1,1.3));
#1179=CARTESIAN_POINT('',(4.75,2.4,-1.11022302462516E-15));
#1180=CARTESIAN_POINT('',(4.75,2.4,1.3));
#1181=CARTESIAN_POINT('',(4.75,-1.05,-1.11022302462516E-15));
#1182=CARTESIAN_POINT('Origin',(5.25,2.7,1.3));
#1183=CARTESIAN_POINT('',(5.25,2.1,-1.11022302462516E-15));
#1184=CARTESIAN_POINT('',(5.25,2.1,0.999999999999999));
#1185=CARTESIAN_POINT('',(5.25,2.1,0.649999999999999));
#1186=CARTESIAN_POINT('',(5.25,2.4,-1.11022302462516E-15));
#1187=CARTESIAN_POINT('',(5.25,1.45,-1.11022302462516E-15));
#1188=CARTESIAN_POINT('',(5.25,2.4,1.3));
#1189=CARTESIAN_POINT('',(5.25,2.4,1.3));
#1190=CARTESIAN_POINT('',(5.25,-2.3,1.3));
#1191=CARTESIAN_POINT('',(5.25,2.4,1.3));
#1192=CARTESIAN_POINT('',(5.25,-2.3,0.999999999999999));
#1193=CARTESIAN_POINT('',(5.25,-2.3,1.15));
#1194=CARTESIAN_POINT('',(5.25,2.4,0.999999999999999));
#1195=CARTESIAN_POINT('Origin',(7.25,-2.3,1.3));
#1196=CARTESIAN_POINT('',(7.25,2.1,0.999999999999999));
#1197=CARTESIAN_POINT('',(7.25,2.1,-1.11022302462516E-15));
#1198=CARTESIAN_POINT('',(7.25,2.1,0.649999999999999));
#1199=CARTESIAN_POINT('',(7.25,-2.3,0.999999999999999));
#1200=CARTESIAN_POINT('',(7.25,-0.1,0.999999999999999));
#1201=CARTESIAN_POINT('',(7.25,-2.3,1.3));
#1202=CARTESIAN_POINT('',(7.25,-2.3,1.15));
#1203=CARTESIAN_POINT('',(7.25,2.4,1.3));
#1204=CARTESIAN_POINT('',(7.25,-0.1,1.3));
#1205=CARTESIAN_POINT('',(7.25,2.4,-1.11022302462516E-15));
#1206=CARTESIAN_POINT('',(7.25,2.4,1.3));
#1207=CARTESIAN_POINT('',(7.25,-1.05,-1.11022302462516E-15));
#1208=CARTESIAN_POINT('Origin',(12.75,2.7,1.3));
#1209=CARTESIAN_POINT('',(12.75,2.1,-1.11022302462516E-15));
#1210=CARTESIAN_POINT('',(12.75,2.1,0.999999999999999));
#1211=CARTESIAN_POINT('',(12.75,2.1,0.649999999999999));
#1212=CARTESIAN_POINT('',(12.75,2.4,-1.11022302462516E-15));
#1213=CARTESIAN_POINT('',(12.75,1.45,-1.11022302462516E-15));
#1214=CARTESIAN_POINT('',(12.75,2.4,1.3));
#1215=CARTESIAN_POINT('',(12.75,2.4,1.3));
#1216=CARTESIAN_POINT('',(12.75,-2.3,1.3));
#1217=CARTESIAN_POINT('',(12.75,2.4,1.3));
#1218=CARTESIAN_POINT('',(12.75,-2.3,0.999999999999999));
#1219=CARTESIAN_POINT('',(12.75,-2.3,1.15));
#1220=CARTESIAN_POINT('',(12.75,2.4,0.999999999999999));
#1221=CARTESIAN_POINT('Origin',(10.25,2.7,1.3));
#1222=CARTESIAN_POINT('',(10.25,2.1,-1.11022302462516E-15));
#1223=CARTESIAN_POINT('',(10.25,2.1,0.999999999999999));
#1224=CARTESIAN_POINT('',(10.25,2.1,0.649999999999999));
#1225=CARTESIAN_POINT('',(10.25,2.4,-1.11022302462516E-15));
#1226=CARTESIAN_POINT('',(10.25,1.45,-1.11022302462516E-15));
#1227=CARTESIAN_POINT('',(10.25,2.4,1.3));
#1228=CARTESIAN_POINT('',(10.25,2.4,1.3));
#1229=CARTESIAN_POINT('',(10.25,-2.3,1.3));
#1230=CARTESIAN_POINT('',(10.25,2.4,1.3));
#1231=CARTESIAN_POINT('',(10.25,-2.3,0.999999999999999));
#1232=CARTESIAN_POINT('',(10.25,-2.3,1.15));
#1233=CARTESIAN_POINT('',(10.25,2.4,0.999999999999999));
#1234=CARTESIAN_POINT('Origin',(12.25,-2.3,1.3));
#1235=CARTESIAN_POINT('',(12.25,2.1,0.999999999999999));
#1236=CARTESIAN_POINT('',(12.25,2.1,-1.11022302462516E-15));
#1237=CARTESIAN_POINT('',(12.25,2.1,0.649999999999999));
#1238=CARTESIAN_POINT('',(12.25,-2.3,0.999999999999999));
#1239=CARTESIAN_POINT('',(12.25,-0.1,0.999999999999999));
#1240=CARTESIAN_POINT('',(12.25,-2.3,1.3));
#1241=CARTESIAN_POINT('',(12.25,-2.3,1.15));
#1242=CARTESIAN_POINT('',(12.25,2.4,1.3));
#1243=CARTESIAN_POINT('',(12.25,-0.1,1.3));
#1244=CARTESIAN_POINT('',(12.25,2.4,-1.11022302462516E-15));
#1245=CARTESIAN_POINT('',(12.25,2.4,1.3));
#1246=CARTESIAN_POINT('',(12.25,-1.05,-1.11022302462516E-15));
#1247=CARTESIAN_POINT('Origin',(7.75,2.7,1.3));
#1248=CARTESIAN_POINT('',(7.75,2.1,-1.11022302462516E-15));
#1249=CARTESIAN_POINT('',(7.75,2.1,0.999999999999999));
#1250=CARTESIAN_POINT('',(7.75,2.1,0.649999999999999));
#1251=CARTESIAN_POINT('',(7.75,2.4,-1.11022302462516E-15));
#1252=CARTESIAN_POINT('',(7.75,1.45,-1.11022302462516E-15));
#1253=CARTESIAN_POINT('',(7.75,2.4,1.3));
#1254=CARTESIAN_POINT('',(7.75,2.4,1.3));
#1255=CARTESIAN_POINT('',(7.75,-2.3,1.3));
#1256=CARTESIAN_POINT('',(7.75,2.4,1.3));
#1257=CARTESIAN_POINT('',(7.75,-2.3,0.999999999999999));
#1258=CARTESIAN_POINT('',(7.75,-2.3,1.15));
#1259=CARTESIAN_POINT('',(7.75,2.4,0.999999999999999));
#1260=CARTESIAN_POINT('Origin',(9.75,-2.3,1.3));
#1261=CARTESIAN_POINT('',(9.75,2.1,0.999999999999999));
#1262=CARTESIAN_POINT('',(9.75,2.1,-1.11022302462516E-15));
#1263=CARTESIAN_POINT('',(9.75,2.1,0.649999999999999));
#1264=CARTESIAN_POINT('',(9.75,-2.3,0.999999999999999));
#1265=CARTESIAN_POINT('',(9.75,-0.1,0.999999999999999));
#1266=CARTESIAN_POINT('',(9.75,-2.3,1.3));
#1267=CARTESIAN_POINT('',(9.75,-2.3,1.15));
#1268=CARTESIAN_POINT('',(9.75,2.4,1.3));
#1269=CARTESIAN_POINT('',(9.75,-0.1,1.3));
#1270=CARTESIAN_POINT('',(9.75,2.4,-1.11022302462516E-15));
#1271=CARTESIAN_POINT('',(9.75,2.4,1.3));
#1272=CARTESIAN_POINT('',(9.75,-1.05,-1.11022302462516E-15));
#1273=CARTESIAN_POINT('Origin',(2.25,-2.3,1.3));
#1274=CARTESIAN_POINT('',(2.25,2.1,0.999999999999999));
#1275=CARTESIAN_POINT('',(2.25,2.1,-1.11022302462516E-15));
#1276=CARTESIAN_POINT('',(2.25,2.1,0.649999999999999));
#1277=CARTESIAN_POINT('',(2.25,-2.3,0.999999999999999));
#1278=CARTESIAN_POINT('',(2.25,-0.1,0.999999999999999));
#1279=CARTESIAN_POINT('',(2.25,-2.3,1.3));
#1280=CARTESIAN_POINT('',(2.25,-2.3,1.15));
#1281=CARTESIAN_POINT('',(2.25,2.4,1.3));
#1282=CARTESIAN_POINT('',(2.25,-0.1,1.3));
#1283=CARTESIAN_POINT('',(2.25,2.4,-1.11022302462516E-15));
#1284=CARTESIAN_POINT('',(2.25,2.4,1.3));
#1285=CARTESIAN_POINT('',(2.25,-1.05,-1.11022302462516E-15));
#1286=CARTESIAN_POINT('Origin',(0.,0.,0.));
#1287=CARTESIAN_POINT('',(15.,0.,0.));
#1288=CARTESIAN_POINT('',(15.,7.,0.));
#1289=CARTESIAN_POINT('',(15.,0.,0.));
#1290=CARTESIAN_POINT('',(0.,7.,0.));
#1291=CARTESIAN_POINT('',(3.75,7.,0.));
#1292=CARTESIAN_POINT('',(0.,0.,0.));
#1293=CARTESIAN_POINT('',(0.,0.,0.));
#1294=CARTESIAN_POINT('',(0.,0.,0.));
#1295=CARTESIAN_POINT('',(7.5,2.1,0.));
#1296=CARTESIAN_POINT('',(7.5,2.4,0.));
#1297=CARTESIAN_POINT('',(7.5,2.4,0.));
#1298=CARTESIAN_POINT('',(7.5,2.1,0.));
#1299=CARTESIAN_POINT('',(7.5,2.1,0.));
#1300=CARTESIAN_POINT('',(7.5,2.4,0.));
#1301=CARTESIAN_POINT('',(7.5,2.1,0.));
#1302=CARTESIAN_POINT('',(7.5,2.4,0.));
#1303=CARTESIAN_POINT('',(7.5,2.4,0.));
#1304=CARTESIAN_POINT('',(7.5,2.1,0.));
#1305=CARTESIAN_POINT('Origin',(15.,2.1,0.));
#1306=CARTESIAN_POINT('',(15.,2.1,0.999999999999999));
#1307=CARTESIAN_POINT('Origin',(15.,2.1,0.));
#1308=CARTESIAN_POINT('',(15.,2.1,0.999999999999999));
#1309=CARTESIAN_POINT('Origin',(15.,2.1,0.));
#1310=CARTESIAN_POINT('',(15.,2.1,0.999999999999999));
#1311=CARTESIAN_POINT('Origin',(15.,2.1,0.));
#1312=CARTESIAN_POINT('',(15.,2.1,0.999999999999999));
#1313=CARTESIAN_POINT('Origin',(15.,2.1,0.));
#1314=CARTESIAN_POINT('',(15.,2.1,0.999999999999999));
#1315=CARTESIAN_POINT('Origin',(0.,0.,-9.6));
#1316=CARTESIAN_POINT('',(0.,7.,-1.4));
#1317=CARTESIAN_POINT('',(0.,7.,-5.15));
#1318=CARTESIAN_POINT('',(0.,9.,-1.4));
#1319=CARTESIAN_POINT('',(0.,4.5,-1.4));
#1320=CARTESIAN_POINT('',(0.,9.,-9.6));
#1321=CARTESIAN_POINT('',(0.,9.,-9.6));
#1322=CARTESIAN_POINT('',(0.,0.,-9.6));
#1323=CARTESIAN_POINT('',(0.,0.,-9.6));
#1324=CARTESIAN_POINT('',(0.,0.,-9.6));
#1325=CARTESIAN_POINT('Origin',(15.,2.1,0.999999999999999));
#1326=CARTESIAN_POINT('',(15.,-2.3,0.999999999999999));
#1327=CARTESIAN_POINT('Origin',(15.,2.1,0.999999999999999));
#1328=CARTESIAN_POINT('',(15.,-2.3,0.999999999999999));
#1329=CARTESIAN_POINT('Origin',(15.,2.1,0.999999999999999));
#1330=CARTESIAN_POINT('',(15.,-2.3,0.999999999999999));
#1331=CARTESIAN_POINT('Origin',(15.,2.1,0.999999999999999));
#1332=CARTESIAN_POINT('',(15.,-2.3,0.999999999999999));
#1333=CARTESIAN_POINT('Origin',(15.,2.1,0.999999999999999));
#1334=CARTESIAN_POINT('',(15.,-2.3,0.999999999999999));
#1335=CARTESIAN_POINT('Origin',(15.,2.4,1.3));
#1336=CARTESIAN_POINT('',(15.,2.4,1.3));
#1337=CARTESIAN_POINT('Origin',(15.,2.4,1.3));
#1338=CARTESIAN_POINT('',(15.,2.4,1.3));
#1339=CARTESIAN_POINT('Origin',(15.,2.4,1.3));
#1340=CARTESIAN_POINT('',(15.,2.4,1.3));
#1341=CARTESIAN_POINT('Origin',(15.,2.4,1.3));
#1342=CARTESIAN_POINT('',(15.,2.4,1.3));
#1343=CARTESIAN_POINT('Origin',(15.,-2.3,0.999999999999999));
#1344=CARTESIAN_POINT('',(15.,-2.3,1.3));
#1345=CARTESIAN_POINT('Origin',(15.,-2.3,0.999999999999999));
#1346=CARTESIAN_POINT('',(15.,-2.3,1.3));
#1347=CARTESIAN_POINT('Origin',(15.,-2.3,0.999999999999999));
#1348=CARTESIAN_POINT('',(15.,-2.3,1.3));
#1349=CARTESIAN_POINT('Origin',(15.,-2.3,0.999999999999999));
#1350=CARTESIAN_POINT('',(15.,-2.3,1.3));
#1351=CARTESIAN_POINT('Origin',(15.,-2.3,0.999999999999999));
#1352=CARTESIAN_POINT('',(15.,-2.3,1.3));
#1353=CARTESIAN_POINT('Origin',(15.,2.1,1.3));
#1354=CARTESIAN_POINT('Origin',(15.,2.1,1.3));
#1355=CARTESIAN_POINT('Origin',(15.,2.1,1.3));
#1356=CARTESIAN_POINT('Origin',(15.,2.1,1.3));
#1357=CARTESIAN_POINT('Origin',(15.,2.1,1.3));
#1358=CARTESIAN_POINT('',(15.,2.4,1.3));
#1359=CARTESIAN_POINT('Origin',(15.,2.4,1.3));
#1360=CARTESIAN_POINT('Origin',(0.,9.,-1.4));
#1361=CARTESIAN_POINT('',(15.,9.,-1.4));
#1362=CARTESIAN_POINT('',(3.75,9.,-1.4));
#1363=CARTESIAN_POINT('',(15.,7.,-1.4));
#1364=CARTESIAN_POINT('',(15.,7.,-1.4));
#1365=CARTESIAN_POINT('',(15.,4.5,-1.4));
#1366=CARTESIAN_POINT('Origin',(7.5,7.,-0.7));
#1367=CARTESIAN_POINT('',(15.,7.,-0.35));
#1368=CARTESIAN_POINT('Origin',(15.,0.,0.));
#1369=CARTESIAN_POINT('',(15.,0.,-9.6));
#1370=CARTESIAN_POINT('',(15.,0.,0.));
#1371=CARTESIAN_POINT('',(15.,9.,-9.6));
#1372=CARTESIAN_POINT('',(15.,0.,-9.6));
#1373=CARTESIAN_POINT('',(15.,9.,0.));
#1374=CARTESIAN_POINT('Origin',(3.,9.,-5.8));
#1375=CARTESIAN_POINT('',(5.,7.,-5.8));
#1376=CARTESIAN_POINT('Origin',(3.,7.,-5.8));
#1377=CARTESIAN_POINT('',(5.,9.,-5.8));
#1378=CARTESIAN_POINT('Origin',(3.,9.,-5.8));
#1379=CARTESIAN_POINT('Origin',(3.,7.,-5.8));
#1380=CARTESIAN_POINT('Origin',(11.,9.,-5.8));
#1381=CARTESIAN_POINT('',(13.,7.,-5.8));
#1382=CARTESIAN_POINT('Origin',(11.,7.,-5.8));
#1383=CARTESIAN_POINT('',(13.,9.,-5.8));
#1384=CARTESIAN_POINT('Origin',(11.,9.,-5.8));
#1385=CARTESIAN_POINT('Origin',(11.,7.,-5.8));
#1386=CARTESIAN_POINT('Origin',(15.,0.,-9.6));
#1387=CARTESIAN_POINT('',(15.,0.,-9.6));
#1388=CARTESIAN_POINT('',(15.,9.,-9.6));
#1389=CARTESIAN_POINT('Origin',(7.5,9.,-4.8));
#1390=CARTESIAN_POINT('Origin',(7.5,0.,-4.8));
#1391=UNCERTAINTY_MEASURE_WITH_UNIT(LENGTH_MEASURE(0.01),#1395,
'DISTANCE_ACCURACY_VALUE',
'Maximum model space distance between geometric entities at asserted c
onnectivities');
#1392=UNCERTAINTY_MEASURE_WITH_UNIT(LENGTH_MEASURE(1.E-6),#1395,
'DISTANCE_ACCURACY_VALUE',
'Maximum model space distance between geometric entities at asserted c
onnectivities');
#1393=(
GEOMETRIC_REPRESENTATION_CONTEXT(3)
GLOBAL_UNCERTAINTY_ASSIGNED_CONTEXT((#1391))
GLOBAL_UNIT_ASSIGNED_CONTEXT((#1395,#1398,#1396))
REPRESENTATION_CONTEXT('','3D')
);
#1394=(
GEOMETRIC_REPRESENTATION_CONTEXT(3)
GLOBAL_UNCERTAINTY_ASSIGNED_CONTEXT((#1392))
GLOBAL_UNIT_ASSIGNED_CONTEXT((#1395,#1398,#1396))
REPRESENTATION_CONTEXT('','3D')
);
#1395=(
LENGTH_UNIT()
NAMED_UNIT(*)
SI_UNIT(.MILLI.,.METRE.)
);
#1396=(
NAMED_UNIT(*)
SI_UNIT($,.STERADIAN.)
SOLID_ANGLE_UNIT()
);
#1397=DIMENSIONAL_EXPONENTS(0.,0.,0.,0.,0.,0.,0.);
#1398=(
CONVERSION_BASED_UNIT('degree',#1400)
NAMED_UNIT(#1397)
PLANE_ANGLE_UNIT()
);
#1399=(
NAMED_UNIT(*)
PLANE_ANGLE_UNIT()
SI_UNIT($,.RADIAN.)
);
#1400=PLANE_ANGLE_MEASURE_WITH_UNIT(PLANE_ANGLE_MEASURE(0.01745329252),
#1399);
#1401=SHAPE_DEFINITION_REPRESENTATION(#1402,#1403);
#1402=PRODUCT_DEFINITION_SHAPE('',$,#1405);
#1403=SHAPE_REPRESENTATION('',(#891),#1393);
#1404=PRODUCT_DEFINITION_CONTEXT('part definition',#1409,'design');
#1405=PRODUCT_DEFINITION('sharp_simple','sharp_simple',#1406,#1404);
#1406=PRODUCT_DEFINITION_FORMATION('',$,#1411);
#1407=PRODUCT_RELATED_PRODUCT_CATEGORY('sharp_simple','sharp_simple',(#1411));
#1408=APPLICATION_PROTOCOL_DEFINITION('international standard',
'automotive_design',2009,#1409);
#1409=APPLICATION_CONTEXT(
'Core Data for Automotive Mechanical Design Process');
#1410=PRODUCT_CONTEXT('part definition',#1409,'mechanical');
#1411=PRODUCT('sharp_simple','sharp_simple',$,(#1410));
#1412=PRESENTATION_STYLE_ASSIGNMENT((#1415));
#1413=PRESENTATION_STYLE_ASSIGNMENT((#1416));
#1414=PRESENTATION_STYLE_ASSIGNMENT((#1417));
#1415=SURFACE_STYLE_USAGE(.BOTH.,#1418);
#1416=SURFACE_STYLE_USAGE(.BOTH.,#1419);
#1417=SURFACE_STYLE_USAGE(.BOTH.,#1420);
#1418=SURFACE_SIDE_STYLE('',(#1421));
#1419=SURFACE_SIDE_STYLE('',(#1422));
#1420=SURFACE_SIDE_STYLE('',(#1423));
#1421=SURFACE_STYLE_FILL_AREA(#1424);
#1422=SURFACE_STYLE_FILL_AREA(#1425);
#1423=SURFACE_STYLE_FILL_AREA(#1426);
#1424=FILL_AREA_STYLE('',(#1427));
#1425=FILL_AREA_STYLE('',(#1428));
#1426=FILL_AREA_STYLE('',(#1429));
#1427=FILL_AREA_STYLE_COLOUR('',#1430);
#1428=FILL_AREA_STYLE_COLOUR('',#1431);
#1429=FILL_AREA_STYLE_COLOUR('',#1432);
#1430=COLOUR_RGB('',0.250980392156863,0.250980392156863,0.250980392156863);
#1431=COLOUR_RGB('',0.772549019607843,0.780392156862745,0.733333333333333);
#1432=COLOUR_RGB('',0.8,0.,0.);
ENDSEC;
END-ISO-10303-21;
