ISO-10303-21;
HEADER;
/* Generated by software containing ST-Developer
 * from STEP Tools, Inc. (www.steptools.com) 
 */

FILE_DESCRIPTION(
/* description */ (''),
/* implementation_level */ '2;1');

FILE_NAME(
/* name */ 
'D:\\Git-Projekty\\project-supernova\\Elektronika v2\\Supernova_Lib\\T
O252.stp',
/* time_stamp */ '2016-09-23T00:33:45+02:00',
/* author */ ('Aleksander Sil'),
/* organization */ (''),
/* preprocessor_version */ 'ST-DEVELOPER v16.1',
/* originating_system */ 'Autodesk Inventor 2016',
/* authorisation */ '');

FILE_SCHEMA (('AUTOMOTIVE_DESIGN { 1 0 10303 214 3 1 1 }'));
ENDSEC;

DATA;
#10=MECHANICAL_DESIGN_GEOMETRIC_PRESENTATION_REPRESENTATION('',(#857,#838,
#840,#841,#845,#837,#839,#842,#843,#846,#848,#847,#849,#844,#850,#832,#833,
#834,#835,#836,#855,#856,#853,#854,#851,#852,#860,#859,#858,#862,#870,#866,
#867,#869,#865,#871,#864,#861,#868,#863,#872,#875,#874,#881,#877,#879,#878,
#873,#876,#880),#1497);
#11=SHAPE_REPRESENTATION_RELATIONSHIP('SRR','None',#1506,#12);
#12=ADVANCED_BREP_SHAPE_REPRESENTATION('',(#13),#1496);
#13=MANIFOLD_SOLID_BREP('Solid1',#931);
#14=CYLINDRICAL_SURFACE('',#978,0.981009726226729);
#15=CYLINDRICAL_SURFACE('',#979,0.981009726226729);
#16=CYLINDRICAL_SURFACE('',#981,0.625433689557126);
#17=CYLINDRICAL_SURFACE('',#982,0.625433689557126);
#18=CYLINDRICAL_SURFACE('',#983,0.625433689557126);
#19=CYLINDRICAL_SURFACE('',#984,1.44872446165585);
#20=CYLINDRICAL_SURFACE('',#988,0.157718954128);
#21=CYLINDRICAL_SURFACE('',#989,0.157718954128);
#22=CYLINDRICAL_SURFACE('',#992,0.157718954128);
#23=CYLINDRICAL_SURFACE('',#993,1.44872446165585);
#24=CIRCLE('',#945,0.157718954128);
#25=CIRCLE('',#946,1.44872446165585);
#26=CIRCLE('',#947,0.981009726226729);
#27=CIRCLE('',#948,0.625433689557126);
#28=CIRCLE('',#950,1.44872446165585);
#29=CIRCLE('',#951,0.157718954128);
#30=CIRCLE('',#952,0.625433689557126);
#31=CIRCLE('',#953,0.981009726226729);
#32=CIRCLE('',#956,0.157718954128);
#33=CIRCLE('',#957,0.625433689557126);
#34=CIRCLE('',#960,0.625433689557126);
#35=CIRCLE('',#961,0.157718954128);
#36=CIRCLE('',#964,0.157718954128);
#37=CIRCLE('',#965,1.44872446165585);
#38=CIRCLE('',#966,0.981009726226729);
#39=CIRCLE('',#967,0.625433689557126);
#40=CIRCLE('',#969,1.44872446165585);
#41=CIRCLE('',#970,0.157718954128);
#42=CIRCLE('',#971,0.625433689557126);
#43=CIRCLE('',#972,0.981009726226729);
#44=FACE_OUTER_BOUND('',#93,.T.);
#45=FACE_OUTER_BOUND('',#94,.T.);
#46=FACE_OUTER_BOUND('',#95,.T.);
#47=FACE_OUTER_BOUND('',#96,.T.);
#48=FACE_OUTER_BOUND('',#97,.T.);
#49=FACE_OUTER_BOUND('',#98,.T.);
#50=FACE_OUTER_BOUND('',#99,.T.);
#51=FACE_OUTER_BOUND('',#100,.T.);
#52=FACE_OUTER_BOUND('',#101,.T.);
#53=FACE_OUTER_BOUND('',#102,.T.);
#54=FACE_OUTER_BOUND('',#103,.T.);
#55=FACE_OUTER_BOUND('',#104,.T.);
#56=FACE_OUTER_BOUND('',#105,.T.);
#57=FACE_OUTER_BOUND('',#106,.T.);
#58=FACE_OUTER_BOUND('',#107,.T.);
#59=FACE_OUTER_BOUND('',#108,.T.);
#60=FACE_OUTER_BOUND('',#109,.T.);
#61=FACE_OUTER_BOUND('',#110,.T.);
#62=FACE_OUTER_BOUND('',#111,.T.);
#63=FACE_OUTER_BOUND('',#112,.T.);
#64=FACE_OUTER_BOUND('',#113,.T.);
#65=FACE_OUTER_BOUND('',#114,.T.);
#66=FACE_OUTER_BOUND('',#115,.T.);
#67=FACE_OUTER_BOUND('',#116,.T.);
#68=FACE_OUTER_BOUND('',#117,.T.);
#69=FACE_OUTER_BOUND('',#118,.T.);
#70=FACE_OUTER_BOUND('',#119,.T.);
#71=FACE_OUTER_BOUND('',#120,.T.);
#72=FACE_OUTER_BOUND('',#121,.T.);
#73=FACE_OUTER_BOUND('',#122,.T.);
#74=FACE_OUTER_BOUND('',#123,.T.);
#75=FACE_OUTER_BOUND('',#124,.T.);
#76=FACE_OUTER_BOUND('',#125,.T.);
#77=FACE_OUTER_BOUND('',#126,.T.);
#78=FACE_OUTER_BOUND('',#127,.T.);
#79=FACE_OUTER_BOUND('',#128,.T.);
#80=FACE_OUTER_BOUND('',#129,.T.);
#81=FACE_OUTER_BOUND('',#130,.T.);
#82=FACE_OUTER_BOUND('',#131,.T.);
#83=FACE_OUTER_BOUND('',#132,.T.);
#84=FACE_OUTER_BOUND('',#133,.T.);
#85=FACE_OUTER_BOUND('',#134,.T.);
#86=FACE_OUTER_BOUND('',#135,.T.);
#87=FACE_OUTER_BOUND('',#136,.T.);
#88=FACE_OUTER_BOUND('',#137,.T.);
#89=FACE_OUTER_BOUND('',#138,.T.);
#90=FACE_OUTER_BOUND('',#139,.T.);
#91=FACE_OUTER_BOUND('',#140,.T.);
#92=FACE_OUTER_BOUND('',#141,.T.);
#93=EDGE_LOOP('',(#547,#548,#549,#550));
#94=EDGE_LOOP('',(#551,#552,#553,#554));
#95=EDGE_LOOP('',(#555,#556,#557,#558,#559,#560));
#96=EDGE_LOOP('',(#561,#562,#563,#564));
#97=EDGE_LOOP('',(#565,#566,#567,#568,#569,#570,#571,#572,#573,#574,#575,
#576));
#98=EDGE_LOOP('',(#577,#578,#579,#580));
#99=EDGE_LOOP('',(#581,#582,#583,#584));
#100=EDGE_LOOP('',(#585,#586,#587,#588,#589,#590));
#101=EDGE_LOOP('',(#591,#592,#593,#594,#595,#596));
#102=EDGE_LOOP('',(#597,#598,#599,#600,#601,#602));
#103=EDGE_LOOP('',(#603,#604,#605,#606));
#104=EDGE_LOOP('',(#607,#608,#609,#610,#611,#612,#613,#614,#615,#616));
#105=EDGE_LOOP('',(#617,#618,#619,#620,#621,#622,#623,#624,#625,#626));
#106=EDGE_LOOP('',(#627,#628,#629,#630));
#107=EDGE_LOOP('',(#631,#632,#633,#634,#635,#636));
#108=EDGE_LOOP('',(#637,#638,#639,#640));
#109=EDGE_LOOP('',(#641,#642,#643,#644,#645,#646));
#110=EDGE_LOOP('',(#647,#648,#649,#650));
#111=EDGE_LOOP('',(#651,#652,#653,#654,#655,#656,#657,#658,#659,#660));
#112=EDGE_LOOP('',(#661,#662,#663,#664,#665,#666,#667,#668,#669,#670));
#113=EDGE_LOOP('',(#671,#672,#673,#674));
#114=EDGE_LOOP('',(#675,#676,#677,#678));
#115=EDGE_LOOP('',(#679,#680,#681,#682));
#116=EDGE_LOOP('',(#683,#684,#685,#686));
#117=EDGE_LOOP('',(#687,#688,#689,#690));
#118=EDGE_LOOP('',(#691,#692,#693,#694));
#119=EDGE_LOOP('',(#695,#696,#697,#698));
#120=EDGE_LOOP('',(#699,#700,#701,#702));
#121=EDGE_LOOP('',(#703,#704,#705,#706));
#122=EDGE_LOOP('',(#707,#708,#709,#710));
#123=EDGE_LOOP('',(#711,#712,#713,#714));
#124=EDGE_LOOP('',(#715,#716,#717,#718));
#125=EDGE_LOOP('',(#719,#720,#721,#722));
#126=EDGE_LOOP('',(#723,#724,#725,#726));
#127=EDGE_LOOP('',(#727,#728,#729,#730));
#128=EDGE_LOOP('',(#731,#732,#733,#734));
#129=EDGE_LOOP('',(#735,#736,#737,#738));
#130=EDGE_LOOP('',(#739,#740,#741,#742));
#131=EDGE_LOOP('',(#743,#744,#745,#746));
#132=EDGE_LOOP('',(#747,#748,#749,#750));
#133=EDGE_LOOP('',(#751,#752,#753,#754));
#134=EDGE_LOOP('',(#755,#756,#757,#758));
#135=EDGE_LOOP('',(#759,#760,#761,#762));
#136=EDGE_LOOP('',(#763,#764,#765,#766,#767,#768,#769,#770,#771,#772));
#137=EDGE_LOOP('',(#773,#774,#775,#776));
#138=EDGE_LOOP('',(#777,#778,#779,#780));
#139=EDGE_LOOP('',(#781,#782,#783,#784));
#140=EDGE_LOOP('',(#785,#786,#787,#788));
#141=EDGE_LOOP('',(#789,#790,#791,#792));
#142=LINE('',#1249,#245);
#143=LINE('',#1251,#246);
#144=LINE('',#1253,#247);
#145=LINE('',#1254,#248);
#146=LINE('',#1258,#249);
#147=LINE('',#1259,#250);
#148=LINE('',#1261,#251);
#149=LINE('',#1262,#252);
#150=LINE('',#1265,#253);
#151=LINE('',#1267,#254);
#152=LINE('',#1269,#255);
#153=LINE('',#1270,#256);
#154=LINE('',#1273,#257);
#155=LINE('',#1274,#258);
#156=LINE('',#1277,#259);
#157=LINE('',#1279,#260);
#158=LINE('',#1281,#261);
#159=LINE('',#1283,#262);
#160=LINE('',#1285,#263);
#161=LINE('',#1287,#264);
#162=LINE('',#1289,#265);
#163=LINE('',#1291,#266);
#164=LINE('',#1293,#267);
#165=LINE('',#1294,#268);
#166=LINE('',#1297,#269);
#167=LINE('',#1299,#270);
#168=LINE('',#1300,#271);
#169=LINE('',#1302,#272);
#170=LINE('',#1305,#273);
#171=LINE('',#1307,#274);
#172=LINE('',#1309,#275);
#173=LINE('',#1310,#276);
#174=LINE('',#1312,#277);
#175=LINE('',#1314,#278);
#176=LINE('',#1315,#279);
#177=LINE('',#1318,#280);
#178=LINE('',#1320,#281);
#179=LINE('',#1321,#282);
#180=LINE('',#1324,#283);
#181=LINE('',#1325,#284);
#182=LINE('',#1328,#285);
#183=LINE('',#1330,#286);
#184=LINE('',#1336,#287);
#185=LINE('',#1338,#288);
#186=LINE('',#1340,#289);
#187=LINE('',#1347,#290);
#188=LINE('',#1349,#291);
#189=LINE('',#1351,#292);
#190=LINE('',#1356,#293);
#191=LINE('',#1358,#294);
#192=LINE('',#1360,#295);
#193=LINE('',#1366,#296);
#194=LINE('',#1367,#297);
#195=LINE('',#1370,#298);
#196=LINE('',#1372,#299);
#197=LINE('',#1376,#300);
#198=LINE('',#1380,#301);
#199=LINE('',#1382,#302);
#200=LINE('',#1383,#303);
#201=LINE('',#1389,#304);
#202=LINE('',#1391,#305);
#203=LINE('',#1392,#306);
#204=LINE('',#1395,#307);
#205=LINE('',#1396,#308);
#206=LINE('',#1399,#309);
#207=LINE('',#1401,#310);
#208=LINE('',#1407,#311);
#209=LINE('',#1409,#312);
#210=LINE('',#1411,#313);
#211=LINE('',#1418,#314);
#212=LINE('',#1420,#315);
#213=LINE('',#1422,#316);
#214=LINE('',#1427,#317);
#215=LINE('',#1429,#318);
#216=LINE('',#1431,#319);
#217=LINE('',#1436,#320);
#218=LINE('',#1438,#321);
#219=LINE('',#1439,#322);
#220=LINE('',#1441,#323);
#221=LINE('',#1442,#324);
#222=LINE('',#1444,#325);
#223=LINE('',#1446,#326);
#224=LINE('',#1448,#327);
#225=LINE('',#1450,#328);
#226=LINE('',#1452,#329);
#227=LINE('',#1454,#330);
#228=LINE('',#1456,#331);
#229=LINE('',#1458,#332);
#230=LINE('',#1460,#333);
#231=LINE('',#1462,#334);
#232=LINE('',#1464,#335);
#233=LINE('',#1466,#336);
#234=LINE('',#1468,#337);
#235=LINE('',#1470,#338);
#236=LINE('',#1474,#339);
#237=LINE('',#1475,#340);
#238=LINE('',#1477,#341);
#239=LINE('',#1481,#342);
#240=LINE('',#1484,#343);
#241=LINE('',#1485,#344);
#242=LINE('',#1488,#345);
#243=LINE('',#1489,#346);
#244=LINE('',#1491,#347);
#245=VECTOR('',#1006,5.4);
#246=VECTOR('',#1007,1.15869428263762);
#247=VECTOR('',#1008,5.4);
#248=VECTOR('',#1009,1.15869428263762);
#249=VECTOR('',#1012,0.927560106237723);
#250=VECTOR('',#1013,0.391305717362381);
#251=VECTOR('',#1014,0.913883950697171);
#252=VECTOR('',#1015,0.55);
#253=VECTOR('',#1018,5.97381705383646);
#254=VECTOR('',#1019,6.18261143472476);
#255=VECTOR('',#1020,5.97381705383646);
#256=VECTOR('',#1021,0.391305717362381);
#257=VECTOR('',#1024,6.21125113364741);
#258=VECTOR('',#1025,0.917269770024482);
#259=VECTOR('',#1028,0.101918863336053);
#260=VECTOR('',#1029,0.572367301929153);
#261=VECTOR('',#1030,0.750000000000001);
#262=VECTOR('',#1031,1.535);
#263=VECTOR('',#1032,0.750000000000001);
#264=VECTOR('',#1033,1.535);
#265=VECTOR('',#1034,0.750000000000001);
#266=VECTOR('',#1035,0.572367301929153);
#267=VECTOR('',#1036,0.101918863336054);
#268=VECTOR('',#1037,0.917269770024482);
#269=VECTOR('',#1040,0.927560106237723);
#270=VECTOR('',#1041,0.55);
#271=VECTOR('',#1042,0.913883950697171);
#272=VECTOR('',#1045,6.21125113364741);
#273=VECTOR('',#1048,1.44287127636979);
#274=VECTOR('',#1049,5.84643467474852);
#275=VECTOR('',#1050,0.822163715107956);
#276=VECTOR('',#1051,0.507713305942872);
#277=VECTOR('',#1054,5.4);
#278=VECTOR('',#1055,1.44287127636979);
#279=VECTOR('',#1056,6.0062844540163);
#280=VECTOR('',#1059,0.507713305942872);
#281=VECTOR('',#1060,0.822163715107956);
#282=VECTOR('',#1061,5.84643467474852);
#283=VECTOR('',#1064,0.5);
#284=VECTOR('',#1065,0.484203811574921);
#285=VECTOR('',#1068,0.716557695611612);
#286=VECTOR('',#1069,0.716557695611612);
#287=VECTOR('',#1074,0.475864799998214);
#288=VECTOR('',#1075,0.5);
#289=VECTOR('',#1076,0.475864799998214);
#290=VECTOR('',#1083,0.475864799998212);
#291=VECTOR('',#1084,0.5);
#292=VECTOR('',#1085,0.475864799998212);
#293=VECTOR('',#1090,0.716557695611612);
#294=VECTOR('',#1091,0.5);
#295=VECTOR('',#1092,0.716557695611612);
#296=VECTOR('',#1099,1.535);
#297=VECTOR('',#1100,0.5);
#298=VECTOR('',#1103,0.716557695611612);
#299=VECTOR('',#1104,0.716557695611612);
#300=VECTOR('',#1107,0.518289580183149);
#301=VECTOR('',#1112,0.750000000000001);
#302=VECTOR('',#1113,0.750000000000001);
#303=VECTOR('',#1114,0.518289580183149);
#304=VECTOR('',#1121,0.716557695611612);
#305=VECTOR('',#1122,0.5);
#306=VECTOR('',#1123,0.716557695611612);
#307=VECTOR('',#1126,1.535);
#308=VECTOR('',#1127,0.5);
#309=VECTOR('',#1130,0.716557695611612);
#310=VECTOR('',#1131,0.716557695611612);
#311=VECTOR('',#1136,0.475864799998211);
#312=VECTOR('',#1137,0.5);
#313=VECTOR('',#1138,0.475864799998214);
#314=VECTOR('',#1145,0.475864799998211);
#315=VECTOR('',#1146,0.5);
#316=VECTOR('',#1147,0.475864799998211);
#317=VECTOR('',#1152,0.716557695611612);
#318=VECTOR('',#1153,0.5);
#319=VECTOR('',#1154,0.716557695611612);
#320=VECTOR('',#1161,0.48420381157492);
#321=VECTOR('',#1164,0.750000000000001);
#322=VECTOR('',#1165,0.750000000000001);
#323=VECTOR('',#1168,0.75);
#324=VECTOR('',#1169,0.75);
#325=VECTOR('',#1172,0.750000000000001);
#326=VECTOR('',#1175,0.75);
#327=VECTOR('',#1178,0.750000000000001);
#328=VECTOR('',#1181,0.75);
#329=VECTOR('',#1184,0.750000000000001);
#330=VECTOR('',#1187,0.750000000000001);
#331=VECTOR('',#1190,0.750000000000001);
#332=VECTOR('',#1193,0.750000000000001);
#333=VECTOR('',#1196,0.750000000000001);
#334=VECTOR('',#1199,0.750000000000001);
#335=VECTOR('',#1202,0.750000000000001);
#336=VECTOR('',#1205,0.750000000000001);
#337=VECTOR('',#1208,0.750000000000001);
#338=VECTOR('',#1211,0.750000000000001);
#339=VECTOR('',#1218,0.750000000000001);
#340=VECTOR('',#1219,0.75);
#341=VECTOR('',#1222,0.75);
#342=VECTOR('',#1229,6.0062844540163);
#343=VECTOR('',#1232,1.);
#344=VECTOR('',#1233,0.9);
#345=VECTOR('',#1236,5.4);
#346=VECTOR('',#1237,0.9);
#347=VECTOR('',#1240,1.);
#348=VERTEX_POINT('',#1247);
#349=VERTEX_POINT('',#1248);
#350=VERTEX_POINT('',#1250);
#351=VERTEX_POINT('',#1252);
#352=VERTEX_POINT('',#1256);
#353=VERTEX_POINT('',#1257);
#354=VERTEX_POINT('',#1260);
#355=VERTEX_POINT('',#1264);
#356=VERTEX_POINT('',#1266);
#357=VERTEX_POINT('',#1268);
#358=VERTEX_POINT('',#1272);
#359=VERTEX_POINT('',#1276);
#360=VERTEX_POINT('',#1278);
#361=VERTEX_POINT('',#1280);
#362=VERTEX_POINT('',#1282);
#363=VERTEX_POINT('',#1284);
#364=VERTEX_POINT('',#1286);
#365=VERTEX_POINT('',#1288);
#366=VERTEX_POINT('',#1290);
#367=VERTEX_POINT('',#1292);
#368=VERTEX_POINT('',#1296);
#369=VERTEX_POINT('',#1298);
#370=VERTEX_POINT('',#1304);
#371=VERTEX_POINT('',#1306);
#372=VERTEX_POINT('',#1308);
#373=VERTEX_POINT('',#1313);
#374=VERTEX_POINT('',#1317);
#375=VERTEX_POINT('',#1319);
#376=VERTEX_POINT('',#1323);
#377=VERTEX_POINT('',#1327);
#378=VERTEX_POINT('',#1329);
#379=VERTEX_POINT('',#1331);
#380=VERTEX_POINT('',#1333);
#381=VERTEX_POINT('',#1335);
#382=VERTEX_POINT('',#1337);
#383=VERTEX_POINT('',#1339);
#384=VERTEX_POINT('',#1341);
#385=VERTEX_POINT('',#1345);
#386=VERTEX_POINT('',#1346);
#387=VERTEX_POINT('',#1348);
#388=VERTEX_POINT('',#1350);
#389=VERTEX_POINT('',#1352);
#390=VERTEX_POINT('',#1354);
#391=VERTEX_POINT('',#1357);
#392=VERTEX_POINT('',#1359);
#393=VERTEX_POINT('',#1361);
#394=VERTEX_POINT('',#1365);
#395=VERTEX_POINT('',#1369);
#396=VERTEX_POINT('',#1371);
#397=VERTEX_POINT('',#1373);
#398=VERTEX_POINT('',#1375);
#399=VERTEX_POINT('',#1379);
#400=VERTEX_POINT('',#1381);
#401=VERTEX_POINT('',#1385);
#402=VERTEX_POINT('',#1387);
#403=VERTEX_POINT('',#1390);
#404=VERTEX_POINT('',#1394);
#405=VERTEX_POINT('',#1398);
#406=VERTEX_POINT('',#1400);
#407=VERTEX_POINT('',#1402);
#408=VERTEX_POINT('',#1404);
#409=VERTEX_POINT('',#1406);
#410=VERTEX_POINT('',#1408);
#411=VERTEX_POINT('',#1410);
#412=VERTEX_POINT('',#1412);
#413=VERTEX_POINT('',#1416);
#414=VERTEX_POINT('',#1417);
#415=VERTEX_POINT('',#1419);
#416=VERTEX_POINT('',#1421);
#417=VERTEX_POINT('',#1423);
#418=VERTEX_POINT('',#1425);
#419=VERTEX_POINT('',#1428);
#420=VERTEX_POINT('',#1430);
#421=VERTEX_POINT('',#1432);
#422=VERTEX_POINT('',#1483);
#423=VERTEX_POINT('',#1487);
#424=EDGE_CURVE('',#348,#349,#142,.T.);
#425=EDGE_CURVE('',#350,#348,#143,.T.);
#426=EDGE_CURVE('',#351,#350,#144,.T.);
#427=EDGE_CURVE('',#349,#351,#145,.T.);
#428=EDGE_CURVE('',#352,#353,#146,.T.);
#429=EDGE_CURVE('',#353,#349,#147,.T.);
#430=EDGE_CURVE('',#349,#354,#148,.F.);
#431=EDGE_CURVE('',#352,#354,#149,.T.);
#432=EDGE_CURVE('',#355,#353,#150,.T.);
#433=EDGE_CURVE('',#356,#355,#151,.T.);
#434=EDGE_CURVE('',#357,#356,#152,.T.);
#435=EDGE_CURVE('',#348,#357,#153,.T.);
#436=EDGE_CURVE('',#358,#352,#154,.T.);
#437=EDGE_CURVE('',#358,#355,#155,.T.);
#438=EDGE_CURVE('',#359,#358,#156,.T.);
#439=EDGE_CURVE('',#359,#360,#157,.T.);
#440=EDGE_CURVE('',#360,#361,#158,.T.);
#441=EDGE_CURVE('',#361,#362,#159,.T.);
#442=EDGE_CURVE('',#362,#363,#160,.T.);
#443=EDGE_CURVE('',#363,#364,#161,.T.);
#444=EDGE_CURVE('',#364,#365,#162,.T.);
#445=EDGE_CURVE('',#365,#366,#163,.T.);
#446=EDGE_CURVE('',#367,#366,#164,.T.);
#447=EDGE_CURVE('',#356,#367,#165,.T.);
#448=EDGE_CURVE('',#357,#368,#166,.T.);
#449=EDGE_CURVE('',#369,#368,#167,.T.);
#450=EDGE_CURVE('',#369,#348,#168,.F.);
#451=EDGE_CURVE('',#368,#367,#169,.T.);
#452=EDGE_CURVE('',#352,#370,#170,.T.);
#453=EDGE_CURVE('',#370,#371,#171,.T.);
#454=EDGE_CURVE('',#371,#372,#172,.T.);
#455=EDGE_CURVE('',#372,#359,#173,.T.);
#456=EDGE_CURVE('',#354,#369,#174,.T.);
#457=EDGE_CURVE('',#368,#373,#175,.T.);
#458=EDGE_CURVE('',#373,#370,#176,.T.);
#459=EDGE_CURVE('',#366,#374,#177,.T.);
#460=EDGE_CURVE('',#374,#375,#178,.T.);
#461=EDGE_CURVE('',#375,#373,#179,.T.);
#462=EDGE_CURVE('',#376,#365,#180,.T.);
#463=EDGE_CURVE('',#374,#376,#181,.T.);
#464=EDGE_CURVE('',#376,#377,#182,.T.);
#465=EDGE_CURVE('',#378,#365,#183,.T.);
#466=EDGE_CURVE('',#379,#378,#24,.T.);
#467=EDGE_CURVE('',#380,#379,#25,.T.);
#468=EDGE_CURVE('',#381,#380,#184,.T.);
#469=EDGE_CURVE('',#382,#381,#185,.T.);
#470=EDGE_CURVE('',#383,#382,#186,.T.);
#471=EDGE_CURVE('',#384,#383,#26,.T.);
#472=EDGE_CURVE('',#377,#384,#27,.T.);
#473=EDGE_CURVE('',#385,#386,#187,.T.);
#474=EDGE_CURVE('',#387,#385,#188,.T.);
#475=EDGE_CURVE('',#388,#387,#189,.T.);
#476=EDGE_CURVE('',#389,#388,#28,.T.);
#477=EDGE_CURVE('',#390,#389,#29,.T.);
#478=EDGE_CURVE('',#364,#390,#190,.T.);
#479=EDGE_CURVE('',#364,#391,#191,.T.);
#480=EDGE_CURVE('',#392,#391,#192,.T.);
#481=EDGE_CURVE('',#393,#392,#30,.T.);
#482=EDGE_CURVE('',#386,#393,#31,.T.);
#483=EDGE_CURVE('',#391,#394,#193,.T.);
#484=EDGE_CURVE('',#394,#363,#194,.T.);
#485=EDGE_CURVE('',#394,#395,#195,.T.);
#486=EDGE_CURVE('',#396,#363,#196,.T.);
#487=EDGE_CURVE('',#397,#396,#32,.T.);
#488=EDGE_CURVE('',#398,#397,#197,.T.);
#489=EDGE_CURVE('',#395,#398,#33,.T.);
#490=EDGE_CURVE('',#398,#399,#198,.T.);
#491=EDGE_CURVE('',#400,#397,#199,.T.);
#492=EDGE_CURVE('',#399,#400,#200,.T.);
#493=EDGE_CURVE('',#399,#401,#34,.T.);
#494=EDGE_CURVE('',#402,#400,#35,.T.);
#495=EDGE_CURVE('',#362,#402,#201,.T.);
#496=EDGE_CURVE('',#362,#403,#202,.T.);
#497=EDGE_CURVE('',#401,#403,#203,.T.);
#498=EDGE_CURVE('',#403,#404,#204,.T.);
#499=EDGE_CURVE('',#404,#361,#205,.T.);
#500=EDGE_CURVE('',#404,#405,#206,.T.);
#501=EDGE_CURVE('',#406,#361,#207,.T.);
#502=EDGE_CURVE('',#407,#406,#36,.T.);
#503=EDGE_CURVE('',#408,#407,#37,.T.);
#504=EDGE_CURVE('',#409,#408,#208,.T.);
#505=EDGE_CURVE('',#410,#409,#209,.T.);
#506=EDGE_CURVE('',#411,#410,#210,.T.);
#507=EDGE_CURVE('',#412,#411,#38,.T.);
#508=EDGE_CURVE('',#405,#412,#39,.T.);
#509=EDGE_CURVE('',#413,#414,#211,.T.);
#510=EDGE_CURVE('',#415,#413,#212,.T.);
#511=EDGE_CURVE('',#416,#415,#213,.T.);
#512=EDGE_CURVE('',#417,#416,#40,.T.);
#513=EDGE_CURVE('',#418,#417,#41,.T.);
#514=EDGE_CURVE('',#360,#418,#214,.T.);
#515=EDGE_CURVE('',#360,#419,#215,.T.);
#516=EDGE_CURVE('',#420,#419,#216,.T.);
#517=EDGE_CURVE('',#421,#420,#42,.T.);
#518=EDGE_CURVE('',#414,#421,#43,.T.);
#519=EDGE_CURVE('',#419,#372,#217,.T.);
#520=EDGE_CURVE('',#409,#415,#218,.T.);
#521=EDGE_CURVE('',#410,#413,#219,.T.);
#522=EDGE_CURVE('',#381,#387,#220,.T.);
#523=EDGE_CURVE('',#382,#385,#221,.T.);
#524=EDGE_CURVE('',#411,#414,#222,.T.);
#525=EDGE_CURVE('',#383,#386,#223,.T.);
#526=EDGE_CURVE('',#412,#421,#224,.T.);
#527=EDGE_CURVE('',#384,#393,#225,.T.);
#528=EDGE_CURVE('',#408,#416,#226,.T.);
#529=EDGE_CURVE('',#395,#401,#227,.T.);
#530=EDGE_CURVE('',#405,#420,#228,.T.);
#531=EDGE_CURVE('',#377,#392,#229,.T.);
#532=EDGE_CURVE('',#407,#417,#230,.T.);
#533=EDGE_CURVE('',#404,#419,#231,.T.);
#534=EDGE_CURVE('',#394,#403,#232,.T.);
#535=EDGE_CURVE('',#376,#391,#233,.T.);
#536=EDGE_CURVE('',#406,#418,#234,.T.);
#537=EDGE_CURVE('',#396,#402,#235,.T.);
#538=EDGE_CURVE('',#378,#390,#236,.T.);
#539=EDGE_CURVE('',#379,#389,#237,.T.);
#540=EDGE_CURVE('',#380,#388,#238,.T.);
#541=EDGE_CURVE('',#371,#375,#239,.T.);
#542=EDGE_CURVE('',#422,#369,#240,.T.);
#543=EDGE_CURVE('',#350,#422,#241,.T.);
#544=EDGE_CURVE('',#423,#422,#242,.T.);
#545=EDGE_CURVE('',#351,#423,#243,.T.);
#546=EDGE_CURVE('',#354,#423,#244,.T.);
#547=ORIENTED_EDGE('',*,*,#424,.F.);
#548=ORIENTED_EDGE('',*,*,#425,.F.);
#549=ORIENTED_EDGE('',*,*,#426,.F.);
#550=ORIENTED_EDGE('',*,*,#427,.F.);
#551=ORIENTED_EDGE('',*,*,#428,.T.);
#552=ORIENTED_EDGE('',*,*,#429,.T.);
#553=ORIENTED_EDGE('',*,*,#430,.T.);
#554=ORIENTED_EDGE('',*,*,#431,.F.);
#555=ORIENTED_EDGE('',*,*,#424,.T.);
#556=ORIENTED_EDGE('',*,*,#429,.F.);
#557=ORIENTED_EDGE('',*,*,#432,.F.);
#558=ORIENTED_EDGE('',*,*,#433,.F.);
#559=ORIENTED_EDGE('',*,*,#434,.F.);
#560=ORIENTED_EDGE('',*,*,#435,.F.);
#561=ORIENTED_EDGE('',*,*,#428,.F.);
#562=ORIENTED_EDGE('',*,*,#436,.F.);
#563=ORIENTED_EDGE('',*,*,#437,.T.);
#564=ORIENTED_EDGE('',*,*,#432,.T.);
#565=ORIENTED_EDGE('',*,*,#437,.F.);
#566=ORIENTED_EDGE('',*,*,#438,.F.);
#567=ORIENTED_EDGE('',*,*,#439,.T.);
#568=ORIENTED_EDGE('',*,*,#440,.T.);
#569=ORIENTED_EDGE('',*,*,#441,.T.);
#570=ORIENTED_EDGE('',*,*,#442,.T.);
#571=ORIENTED_EDGE('',*,*,#443,.T.);
#572=ORIENTED_EDGE('',*,*,#444,.T.);
#573=ORIENTED_EDGE('',*,*,#445,.T.);
#574=ORIENTED_EDGE('',*,*,#446,.F.);
#575=ORIENTED_EDGE('',*,*,#447,.F.);
#576=ORIENTED_EDGE('',*,*,#433,.T.);
#577=ORIENTED_EDGE('',*,*,#448,.T.);
#578=ORIENTED_EDGE('',*,*,#449,.F.);
#579=ORIENTED_EDGE('',*,*,#450,.T.);
#580=ORIENTED_EDGE('',*,*,#435,.T.);
#581=ORIENTED_EDGE('',*,*,#448,.F.);
#582=ORIENTED_EDGE('',*,*,#434,.T.);
#583=ORIENTED_EDGE('',*,*,#447,.T.);
#584=ORIENTED_EDGE('',*,*,#451,.F.);
#585=ORIENTED_EDGE('',*,*,#452,.T.);
#586=ORIENTED_EDGE('',*,*,#453,.T.);
#587=ORIENTED_EDGE('',*,*,#454,.T.);
#588=ORIENTED_EDGE('',*,*,#455,.T.);
#589=ORIENTED_EDGE('',*,*,#438,.T.);
#590=ORIENTED_EDGE('',*,*,#436,.T.);
#591=ORIENTED_EDGE('',*,*,#452,.F.);
#592=ORIENTED_EDGE('',*,*,#431,.T.);
#593=ORIENTED_EDGE('',*,*,#456,.T.);
#594=ORIENTED_EDGE('',*,*,#449,.T.);
#595=ORIENTED_EDGE('',*,*,#457,.T.);
#596=ORIENTED_EDGE('',*,*,#458,.T.);
#597=ORIENTED_EDGE('',*,*,#457,.F.);
#598=ORIENTED_EDGE('',*,*,#451,.T.);
#599=ORIENTED_EDGE('',*,*,#446,.T.);
#600=ORIENTED_EDGE('',*,*,#459,.T.);
#601=ORIENTED_EDGE('',*,*,#460,.T.);
#602=ORIENTED_EDGE('',*,*,#461,.T.);
#603=ORIENTED_EDGE('',*,*,#459,.F.);
#604=ORIENTED_EDGE('',*,*,#445,.F.);
#605=ORIENTED_EDGE('',*,*,#462,.F.);
#606=ORIENTED_EDGE('',*,*,#463,.F.);
#607=ORIENTED_EDGE('',*,*,#464,.F.);
#608=ORIENTED_EDGE('',*,*,#462,.T.);
#609=ORIENTED_EDGE('',*,*,#465,.F.);
#610=ORIENTED_EDGE('',*,*,#466,.F.);
#611=ORIENTED_EDGE('',*,*,#467,.F.);
#612=ORIENTED_EDGE('',*,*,#468,.F.);
#613=ORIENTED_EDGE('',*,*,#469,.F.);
#614=ORIENTED_EDGE('',*,*,#470,.F.);
#615=ORIENTED_EDGE('',*,*,#471,.F.);
#616=ORIENTED_EDGE('',*,*,#472,.F.);
#617=ORIENTED_EDGE('',*,*,#473,.F.);
#618=ORIENTED_EDGE('',*,*,#474,.F.);
#619=ORIENTED_EDGE('',*,*,#475,.F.);
#620=ORIENTED_EDGE('',*,*,#476,.F.);
#621=ORIENTED_EDGE('',*,*,#477,.F.);
#622=ORIENTED_EDGE('',*,*,#478,.F.);
#623=ORIENTED_EDGE('',*,*,#479,.T.);
#624=ORIENTED_EDGE('',*,*,#480,.F.);
#625=ORIENTED_EDGE('',*,*,#481,.F.);
#626=ORIENTED_EDGE('',*,*,#482,.F.);
#627=ORIENTED_EDGE('',*,*,#483,.F.);
#628=ORIENTED_EDGE('',*,*,#479,.F.);
#629=ORIENTED_EDGE('',*,*,#443,.F.);
#630=ORIENTED_EDGE('',*,*,#484,.F.);
#631=ORIENTED_EDGE('',*,*,#485,.F.);
#632=ORIENTED_EDGE('',*,*,#484,.T.);
#633=ORIENTED_EDGE('',*,*,#486,.F.);
#634=ORIENTED_EDGE('',*,*,#487,.F.);
#635=ORIENTED_EDGE('',*,*,#488,.F.);
#636=ORIENTED_EDGE('',*,*,#489,.F.);
#637=ORIENTED_EDGE('',*,*,#490,.F.);
#638=ORIENTED_EDGE('',*,*,#488,.T.);
#639=ORIENTED_EDGE('',*,*,#491,.F.);
#640=ORIENTED_EDGE('',*,*,#492,.F.);
#641=ORIENTED_EDGE('',*,*,#493,.F.);
#642=ORIENTED_EDGE('',*,*,#492,.T.);
#643=ORIENTED_EDGE('',*,*,#494,.F.);
#644=ORIENTED_EDGE('',*,*,#495,.F.);
#645=ORIENTED_EDGE('',*,*,#496,.T.);
#646=ORIENTED_EDGE('',*,*,#497,.F.);
#647=ORIENTED_EDGE('',*,*,#498,.F.);
#648=ORIENTED_EDGE('',*,*,#496,.F.);
#649=ORIENTED_EDGE('',*,*,#441,.F.);
#650=ORIENTED_EDGE('',*,*,#499,.F.);
#651=ORIENTED_EDGE('',*,*,#500,.F.);
#652=ORIENTED_EDGE('',*,*,#499,.T.);
#653=ORIENTED_EDGE('',*,*,#501,.F.);
#654=ORIENTED_EDGE('',*,*,#502,.F.);
#655=ORIENTED_EDGE('',*,*,#503,.F.);
#656=ORIENTED_EDGE('',*,*,#504,.F.);
#657=ORIENTED_EDGE('',*,*,#505,.F.);
#658=ORIENTED_EDGE('',*,*,#506,.F.);
#659=ORIENTED_EDGE('',*,*,#507,.F.);
#660=ORIENTED_EDGE('',*,*,#508,.F.);
#661=ORIENTED_EDGE('',*,*,#509,.F.);
#662=ORIENTED_EDGE('',*,*,#510,.F.);
#663=ORIENTED_EDGE('',*,*,#511,.F.);
#664=ORIENTED_EDGE('',*,*,#512,.F.);
#665=ORIENTED_EDGE('',*,*,#513,.F.);
#666=ORIENTED_EDGE('',*,*,#514,.F.);
#667=ORIENTED_EDGE('',*,*,#515,.T.);
#668=ORIENTED_EDGE('',*,*,#516,.F.);
#669=ORIENTED_EDGE('',*,*,#517,.F.);
#670=ORIENTED_EDGE('',*,*,#518,.F.);
#671=ORIENTED_EDGE('',*,*,#455,.F.);
#672=ORIENTED_EDGE('',*,*,#519,.F.);
#673=ORIENTED_EDGE('',*,*,#515,.F.);
#674=ORIENTED_EDGE('',*,*,#439,.F.);
#675=ORIENTED_EDGE('',*,*,#505,.T.);
#676=ORIENTED_EDGE('',*,*,#520,.T.);
#677=ORIENTED_EDGE('',*,*,#510,.T.);
#678=ORIENTED_EDGE('',*,*,#521,.F.);
#679=ORIENTED_EDGE('',*,*,#469,.T.);
#680=ORIENTED_EDGE('',*,*,#522,.T.);
#681=ORIENTED_EDGE('',*,*,#474,.T.);
#682=ORIENTED_EDGE('',*,*,#523,.F.);
#683=ORIENTED_EDGE('',*,*,#506,.T.);
#684=ORIENTED_EDGE('',*,*,#521,.T.);
#685=ORIENTED_EDGE('',*,*,#509,.T.);
#686=ORIENTED_EDGE('',*,*,#524,.F.);
#687=ORIENTED_EDGE('',*,*,#470,.T.);
#688=ORIENTED_EDGE('',*,*,#523,.T.);
#689=ORIENTED_EDGE('',*,*,#473,.T.);
#690=ORIENTED_EDGE('',*,*,#525,.F.);
#691=ORIENTED_EDGE('',*,*,#507,.T.);
#692=ORIENTED_EDGE('',*,*,#524,.T.);
#693=ORIENTED_EDGE('',*,*,#518,.T.);
#694=ORIENTED_EDGE('',*,*,#526,.F.);
#695=ORIENTED_EDGE('',*,*,#471,.T.);
#696=ORIENTED_EDGE('',*,*,#525,.T.);
#697=ORIENTED_EDGE('',*,*,#482,.T.);
#698=ORIENTED_EDGE('',*,*,#527,.F.);
#699=ORIENTED_EDGE('',*,*,#504,.T.);
#700=ORIENTED_EDGE('',*,*,#528,.T.);
#701=ORIENTED_EDGE('',*,*,#511,.T.);
#702=ORIENTED_EDGE('',*,*,#520,.F.);
#703=ORIENTED_EDGE('',*,*,#489,.T.);
#704=ORIENTED_EDGE('',*,*,#490,.T.);
#705=ORIENTED_EDGE('',*,*,#493,.T.);
#706=ORIENTED_EDGE('',*,*,#529,.F.);
#707=ORIENTED_EDGE('',*,*,#508,.T.);
#708=ORIENTED_EDGE('',*,*,#526,.T.);
#709=ORIENTED_EDGE('',*,*,#517,.T.);
#710=ORIENTED_EDGE('',*,*,#530,.F.);
#711=ORIENTED_EDGE('',*,*,#472,.T.);
#712=ORIENTED_EDGE('',*,*,#527,.T.);
#713=ORIENTED_EDGE('',*,*,#481,.T.);
#714=ORIENTED_EDGE('',*,*,#531,.F.);
#715=ORIENTED_EDGE('',*,*,#503,.T.);
#716=ORIENTED_EDGE('',*,*,#532,.T.);
#717=ORIENTED_EDGE('',*,*,#512,.T.);
#718=ORIENTED_EDGE('',*,*,#528,.F.);
#719=ORIENTED_EDGE('',*,*,#500,.T.);
#720=ORIENTED_EDGE('',*,*,#530,.T.);
#721=ORIENTED_EDGE('',*,*,#516,.T.);
#722=ORIENTED_EDGE('',*,*,#533,.F.);
#723=ORIENTED_EDGE('',*,*,#485,.T.);
#724=ORIENTED_EDGE('',*,*,#529,.T.);
#725=ORIENTED_EDGE('',*,*,#497,.T.);
#726=ORIENTED_EDGE('',*,*,#534,.F.);
#727=ORIENTED_EDGE('',*,*,#464,.T.);
#728=ORIENTED_EDGE('',*,*,#531,.T.);
#729=ORIENTED_EDGE('',*,*,#480,.T.);
#730=ORIENTED_EDGE('',*,*,#535,.F.);
#731=ORIENTED_EDGE('',*,*,#502,.T.);
#732=ORIENTED_EDGE('',*,*,#536,.T.);
#733=ORIENTED_EDGE('',*,*,#513,.T.);
#734=ORIENTED_EDGE('',*,*,#532,.F.);
#735=ORIENTED_EDGE('',*,*,#487,.T.);
#736=ORIENTED_EDGE('',*,*,#537,.T.);
#737=ORIENTED_EDGE('',*,*,#494,.T.);
#738=ORIENTED_EDGE('',*,*,#491,.T.);
#739=ORIENTED_EDGE('',*,*,#501,.T.);
#740=ORIENTED_EDGE('',*,*,#440,.F.);
#741=ORIENTED_EDGE('',*,*,#514,.T.);
#742=ORIENTED_EDGE('',*,*,#536,.F.);
#743=ORIENTED_EDGE('',*,*,#486,.T.);
#744=ORIENTED_EDGE('',*,*,#442,.F.);
#745=ORIENTED_EDGE('',*,*,#495,.T.);
#746=ORIENTED_EDGE('',*,*,#537,.F.);
#747=ORIENTED_EDGE('',*,*,#466,.T.);
#748=ORIENTED_EDGE('',*,*,#538,.T.);
#749=ORIENTED_EDGE('',*,*,#477,.T.);
#750=ORIENTED_EDGE('',*,*,#539,.F.);
#751=ORIENTED_EDGE('',*,*,#467,.T.);
#752=ORIENTED_EDGE('',*,*,#539,.T.);
#753=ORIENTED_EDGE('',*,*,#476,.T.);
#754=ORIENTED_EDGE('',*,*,#540,.F.);
#755=ORIENTED_EDGE('',*,*,#468,.T.);
#756=ORIENTED_EDGE('',*,*,#540,.T.);
#757=ORIENTED_EDGE('',*,*,#475,.T.);
#758=ORIENTED_EDGE('',*,*,#522,.F.);
#759=ORIENTED_EDGE('',*,*,#465,.T.);
#760=ORIENTED_EDGE('',*,*,#444,.F.);
#761=ORIENTED_EDGE('',*,*,#478,.T.);
#762=ORIENTED_EDGE('',*,*,#538,.F.);
#763=ORIENTED_EDGE('',*,*,#454,.F.);
#764=ORIENTED_EDGE('',*,*,#541,.T.);
#765=ORIENTED_EDGE('',*,*,#460,.F.);
#766=ORIENTED_EDGE('',*,*,#463,.T.);
#767=ORIENTED_EDGE('',*,*,#535,.T.);
#768=ORIENTED_EDGE('',*,*,#483,.T.);
#769=ORIENTED_EDGE('',*,*,#534,.T.);
#770=ORIENTED_EDGE('',*,*,#498,.T.);
#771=ORIENTED_EDGE('',*,*,#533,.T.);
#772=ORIENTED_EDGE('',*,*,#519,.T.);
#773=ORIENTED_EDGE('',*,*,#425,.T.);
#774=ORIENTED_EDGE('',*,*,#450,.F.);
#775=ORIENTED_EDGE('',*,*,#542,.F.);
#776=ORIENTED_EDGE('',*,*,#543,.F.);
#777=ORIENTED_EDGE('',*,*,#426,.T.);
#778=ORIENTED_EDGE('',*,*,#543,.T.);
#779=ORIENTED_EDGE('',*,*,#544,.F.);
#780=ORIENTED_EDGE('',*,*,#545,.F.);
#781=ORIENTED_EDGE('',*,*,#427,.T.);
#782=ORIENTED_EDGE('',*,*,#545,.T.);
#783=ORIENTED_EDGE('',*,*,#546,.F.);
#784=ORIENTED_EDGE('',*,*,#430,.F.);
#785=ORIENTED_EDGE('',*,*,#546,.T.);
#786=ORIENTED_EDGE('',*,*,#544,.T.);
#787=ORIENTED_EDGE('',*,*,#542,.T.);
#788=ORIENTED_EDGE('',*,*,#456,.F.);
#789=ORIENTED_EDGE('',*,*,#453,.F.);
#790=ORIENTED_EDGE('',*,*,#458,.F.);
#791=ORIENTED_EDGE('',*,*,#461,.F.);
#792=ORIENTED_EDGE('',*,*,#541,.F.);
#793=PLANE('',#933);
#794=PLANE('',#934);
#795=PLANE('',#935);
#796=PLANE('',#936);
#797=PLANE('',#937);
#798=PLANE('',#938);
#799=PLANE('',#939);
#800=PLANE('',#940);
#801=PLANE('',#941);
#802=PLANE('',#942);
#803=PLANE('',#943);
#804=PLANE('',#944);
#805=PLANE('',#949);
#806=PLANE('',#954);
#807=PLANE('',#955);
#808=PLANE('',#958);
#809=PLANE('',#959);
#810=PLANE('',#962);
#811=PLANE('',#963);
#812=PLANE('',#968);
#813=PLANE('',#973);
#814=PLANE('',#974);
#815=PLANE('',#975);
#816=PLANE('',#976);
#817=PLANE('',#977);
#818=PLANE('',#980);
#819=PLANE('',#985);
#820=PLANE('',#986);
#821=PLANE('',#987);
#822=PLANE('',#990);
#823=PLANE('',#991);
#824=PLANE('',#994);
#825=PLANE('',#995);
#826=PLANE('',#996);
#827=PLANE('',#997);
#828=PLANE('',#998);
#829=PLANE('',#999);
#830=PLANE('',#1000);
#831=PLANE('',#1001);
#832=STYLED_ITEM('',(#1516),#882);
#833=STYLED_ITEM('',(#1517),#883);
#834=STYLED_ITEM('',(#1517),#884);
#835=STYLED_ITEM('',(#1517),#885);
#836=STYLED_ITEM('',(#1517),#886);
#837=STYLED_ITEM('',(#1517),#887);
#838=STYLED_ITEM('',(#1517),#888);
#839=STYLED_ITEM('',(#1517),#889);
#840=STYLED_ITEM('',(#1517),#890);
#841=STYLED_ITEM('',(#1517),#891);
#842=STYLED_ITEM('',(#1517),#892);
#843=STYLED_ITEM('',(#1516),#893);
#844=STYLED_ITEM('',(#1516),#894);
#845=STYLED_ITEM('',(#1517),#895);
#846=STYLED_ITEM('',(#1516),#896);
#847=STYLED_ITEM('',(#1516),#897);
#848=STYLED_ITEM('',(#1516),#898);
#849=STYLED_ITEM('',(#1517),#899);
#850=STYLED_ITEM('',(#1516),#900);
#851=STYLED_ITEM('',(#1516),#901);
#852=STYLED_ITEM('',(#1517),#902);
#853=STYLED_ITEM('',(#1516),#903);
#854=STYLED_ITEM('',(#1516),#904);
#855=STYLED_ITEM('',(#1516),#905);
#856=STYLED_ITEM('',(#1516),#906);
#857=STYLED_ITEM('',(#1516),#907);
#858=STYLED_ITEM('',(#1516),#908);
#859=STYLED_ITEM('',(#1516),#909);
#860=STYLED_ITEM('',(#1516),#910);
#861=STYLED_ITEM('',(#1516),#911);
#862=STYLED_ITEM('',(#1516),#912);
#863=STYLED_ITEM('',(#1516),#913);
#864=STYLED_ITEM('',(#1516),#914);
#865=STYLED_ITEM('',(#1516),#915);
#866=STYLED_ITEM('',(#1516),#916);
#867=STYLED_ITEM('',(#1516),#917);
#868=STYLED_ITEM('',(#1516),#918);
#869=STYLED_ITEM('',(#1516),#919);
#870=STYLED_ITEM('',(#1516),#920);
#871=STYLED_ITEM('',(#1516),#921);
#872=STYLED_ITEM('',(#1516),#922);
#873=STYLED_ITEM('',(#1516),#923);
#874=STYLED_ITEM('',(#1516),#924);
#875=STYLED_ITEM('',(#1517),#925);
#876=STYLED_ITEM('',(#1516),#926);
#877=STYLED_ITEM('',(#1516),#927);
#878=STYLED_ITEM('',(#1516),#928);
#879=STYLED_ITEM('',(#1516),#929);
#880=STYLED_ITEM('',(#1517),#930);
#881=STYLED_ITEM('',(#1515),#13);
#882=ADVANCED_FACE('',(#44),#793,.F.);
#883=ADVANCED_FACE('',(#45),#794,.T.);
#884=ADVANCED_FACE('',(#46),#795,.F.);
#885=ADVANCED_FACE('',(#47),#796,.T.);
#886=ADVANCED_FACE('',(#48),#797,.T.);
#887=ADVANCED_FACE('',(#49),#798,.T.);
#888=ADVANCED_FACE('',(#50),#799,.T.);
#889=ADVANCED_FACE('',(#51),#800,.T.);
#890=ADVANCED_FACE('',(#52),#801,.T.);
#891=ADVANCED_FACE('',(#53),#802,.T.);
#892=ADVANCED_FACE('',(#54),#803,.F.);
#893=ADVANCED_FACE('',(#55),#804,.T.);
#894=ADVANCED_FACE('',(#56),#805,.T.);
#895=ADVANCED_FACE('',(#57),#806,.F.);
#896=ADVANCED_FACE('',(#58),#807,.T.);
#897=ADVANCED_FACE('',(#59),#808,.T.);
#898=ADVANCED_FACE('',(#60),#809,.T.);
#899=ADVANCED_FACE('',(#61),#810,.F.);
#900=ADVANCED_FACE('',(#62),#811,.T.);
#901=ADVANCED_FACE('',(#63),#812,.T.);
#902=ADVANCED_FACE('',(#64),#813,.F.);
#903=ADVANCED_FACE('',(#65),#814,.T.);
#904=ADVANCED_FACE('',(#66),#815,.T.);
#905=ADVANCED_FACE('',(#67),#816,.T.);
#906=ADVANCED_FACE('',(#68),#817,.T.);
#907=ADVANCED_FACE('',(#69),#14,.F.);
#908=ADVANCED_FACE('',(#70),#15,.F.);
#909=ADVANCED_FACE('',(#71),#818,.T.);
#910=ADVANCED_FACE('',(#72),#16,.T.);
#911=ADVANCED_FACE('',(#73),#17,.T.);
#912=ADVANCED_FACE('',(#74),#18,.T.);
#913=ADVANCED_FACE('',(#75),#19,.T.);
#914=ADVANCED_FACE('',(#76),#819,.T.);
#915=ADVANCED_FACE('',(#77),#820,.T.);
#916=ADVANCED_FACE('',(#78),#821,.T.);
#917=ADVANCED_FACE('',(#79),#20,.F.);
#918=ADVANCED_FACE('',(#80),#21,.F.);
#919=ADVANCED_FACE('',(#81),#822,.T.);
#920=ADVANCED_FACE('',(#82),#823,.T.);
#921=ADVANCED_FACE('',(#83),#22,.F.);
#922=ADVANCED_FACE('',(#84),#23,.T.);
#923=ADVANCED_FACE('',(#85),#824,.T.);
#924=ADVANCED_FACE('',(#86),#825,.T.);
#925=ADVANCED_FACE('',(#87),#826,.T.);
#926=ADVANCED_FACE('',(#88),#827,.T.);
#927=ADVANCED_FACE('',(#89),#828,.T.);
#928=ADVANCED_FACE('',(#90),#829,.T.);
#929=ADVANCED_FACE('',(#91),#830,.T.);
#930=ADVANCED_FACE('',(#92),#831,.T.);
#931=CLOSED_SHELL('',(#882,#883,#884,#885,#886,#887,#888,#889,#890,#891,
#892,#893,#894,#895,#896,#897,#898,#899,#900,#901,#902,#903,#904,#905,#906,
#907,#908,#909,#910,#911,#912,#913,#914,#915,#916,#917,#918,#919,#920,#921,
#922,#923,#924,#925,#926,#927,#928,#929,#930));
#932=AXIS2_PLACEMENT_3D('placement',#1245,#1002,#1003);
#933=AXIS2_PLACEMENT_3D('',#1246,#1004,#1005);
#934=AXIS2_PLACEMENT_3D('',#1255,#1010,#1011);
#935=AXIS2_PLACEMENT_3D('',#1263,#1016,#1017);
#936=AXIS2_PLACEMENT_3D('',#1271,#1022,#1023);
#937=AXIS2_PLACEMENT_3D('',#1275,#1026,#1027);
#938=AXIS2_PLACEMENT_3D('',#1295,#1038,#1039);
#939=AXIS2_PLACEMENT_3D('',#1301,#1043,#1044);
#940=AXIS2_PLACEMENT_3D('',#1303,#1046,#1047);
#941=AXIS2_PLACEMENT_3D('',#1311,#1052,#1053);
#942=AXIS2_PLACEMENT_3D('',#1316,#1057,#1058);
#943=AXIS2_PLACEMENT_3D('',#1322,#1062,#1063);
#944=AXIS2_PLACEMENT_3D('',#1326,#1066,#1067);
#945=AXIS2_PLACEMENT_3D('',#1332,#1070,#1071);
#946=AXIS2_PLACEMENT_3D('',#1334,#1072,#1073);
#947=AXIS2_PLACEMENT_3D('',#1342,#1077,#1078);
#948=AXIS2_PLACEMENT_3D('',#1343,#1079,#1080);
#949=AXIS2_PLACEMENT_3D('',#1344,#1081,#1082);
#950=AXIS2_PLACEMENT_3D('',#1353,#1086,#1087);
#951=AXIS2_PLACEMENT_3D('',#1355,#1088,#1089);
#952=AXIS2_PLACEMENT_3D('',#1362,#1093,#1094);
#953=AXIS2_PLACEMENT_3D('',#1363,#1095,#1096);
#954=AXIS2_PLACEMENT_3D('',#1364,#1097,#1098);
#955=AXIS2_PLACEMENT_3D('',#1368,#1101,#1102);
#956=AXIS2_PLACEMENT_3D('',#1374,#1105,#1106);
#957=AXIS2_PLACEMENT_3D('',#1377,#1108,#1109);
#958=AXIS2_PLACEMENT_3D('',#1378,#1110,#1111);
#959=AXIS2_PLACEMENT_3D('',#1384,#1115,#1116);
#960=AXIS2_PLACEMENT_3D('',#1386,#1117,#1118);
#961=AXIS2_PLACEMENT_3D('',#1388,#1119,#1120);
#962=AXIS2_PLACEMENT_3D('',#1393,#1124,#1125);
#963=AXIS2_PLACEMENT_3D('',#1397,#1128,#1129);
#964=AXIS2_PLACEMENT_3D('',#1403,#1132,#1133);
#965=AXIS2_PLACEMENT_3D('',#1405,#1134,#1135);
#966=AXIS2_PLACEMENT_3D('',#1413,#1139,#1140);
#967=AXIS2_PLACEMENT_3D('',#1414,#1141,#1142);
#968=AXIS2_PLACEMENT_3D('',#1415,#1143,#1144);
#969=AXIS2_PLACEMENT_3D('',#1424,#1148,#1149);
#970=AXIS2_PLACEMENT_3D('',#1426,#1150,#1151);
#971=AXIS2_PLACEMENT_3D('',#1433,#1155,#1156);
#972=AXIS2_PLACEMENT_3D('',#1434,#1157,#1158);
#973=AXIS2_PLACEMENT_3D('',#1435,#1159,#1160);
#974=AXIS2_PLACEMENT_3D('',#1437,#1162,#1163);
#975=AXIS2_PLACEMENT_3D('',#1440,#1166,#1167);
#976=AXIS2_PLACEMENT_3D('',#1443,#1170,#1171);
#977=AXIS2_PLACEMENT_3D('',#1445,#1173,#1174);
#978=AXIS2_PLACEMENT_3D('',#1447,#1176,#1177);
#979=AXIS2_PLACEMENT_3D('',#1449,#1179,#1180);
#980=AXIS2_PLACEMENT_3D('',#1451,#1182,#1183);
#981=AXIS2_PLACEMENT_3D('',#1453,#1185,#1186);
#982=AXIS2_PLACEMENT_3D('',#1455,#1188,#1189);
#983=AXIS2_PLACEMENT_3D('',#1457,#1191,#1192);
#984=AXIS2_PLACEMENT_3D('',#1459,#1194,#1195);
#985=AXIS2_PLACEMENT_3D('',#1461,#1197,#1198);
#986=AXIS2_PLACEMENT_3D('',#1463,#1200,#1201);
#987=AXIS2_PLACEMENT_3D('',#1465,#1203,#1204);
#988=AXIS2_PLACEMENT_3D('',#1467,#1206,#1207);
#989=AXIS2_PLACEMENT_3D('',#1469,#1209,#1210);
#990=AXIS2_PLACEMENT_3D('',#1471,#1212,#1213);
#991=AXIS2_PLACEMENT_3D('',#1472,#1214,#1215);
#992=AXIS2_PLACEMENT_3D('',#1473,#1216,#1217);
#993=AXIS2_PLACEMENT_3D('',#1476,#1220,#1221);
#994=AXIS2_PLACEMENT_3D('',#1478,#1223,#1224);
#995=AXIS2_PLACEMENT_3D('',#1479,#1225,#1226);
#996=AXIS2_PLACEMENT_3D('',#1480,#1227,#1228);
#997=AXIS2_PLACEMENT_3D('',#1482,#1230,#1231);
#998=AXIS2_PLACEMENT_3D('',#1486,#1234,#1235);
#999=AXIS2_PLACEMENT_3D('',#1490,#1238,#1239);
#1000=AXIS2_PLACEMENT_3D('',#1492,#1241,#1242);
#1001=AXIS2_PLACEMENT_3D('',#1493,#1243,#1244);
#1002=DIRECTION('axis',(0.,0.,1.));
#1003=DIRECTION('refdir',(1.,0.,0.));
#1004=DIRECTION('center_axis',(0.,1.,0.));
#1005=DIRECTION('ref_axis',(0.,0.,1.));
#1006=DIRECTION('',(-1.18699215733684E-17,0.,-1.));
#1007=DIRECTION('',(1.,0.,0.));
#1008=DIRECTION('',(-2.05596856412066E-16,0.,1.));
#1009=DIRECTION('',(-1.,0.,0.));
#1010=DIRECTION('center_axis',(-0.984807753012208,-0.173648177666931,0.));
#1011=DIRECTION('ref_axis',(0.,0.,1.));
#1012=DIRECTION('',(0.171087869746036,-0.970287525247814,0.171087869746036));
#1013=DIRECTION('',(0.,0.,1.));
#1014=DIRECTION('',(0.173648177666931,-0.984807753012208,0.));
#1015=DIRECTION('',(0.,0.,1.));
#1016=DIRECTION('center_axis',(0.,1.,0.));
#1017=DIRECTION('ref_axis',(0.,0.,1.));
#1018=DIRECTION('',(-1.,0.,0.));
#1019=DIRECTION('',(0.,0.,-1.));
#1020=DIRECTION('',(1.,0.,0.));
#1021=DIRECTION('',(0.,0.,1.));
#1022=DIRECTION('center_axis',(0.,-0.173648177666931,-0.984807753012208));
#1023=DIRECTION('ref_axis',(-1.,0.,0.));
#1024=DIRECTION('',(-1.,0.,0.));
#1025=DIRECTION('',(-0.0858414827856261,-0.981172637986292,0.173007208809883));
#1026=DIRECTION('center_axis',(0.996194698091746,-0.0871557427476584,0.));
#1027=DIRECTION('ref_axis',(0.,0.,-1.));
#1028=DIRECTION('',(-0.0858414827856261,-0.981172637986292,-0.173007208809883));
#1029=DIRECTION('',(0.,0.,1.));
#1030=DIRECTION('',(0.,0.,1.));
#1031=DIRECTION('',(0.,0.,1.));
#1032=DIRECTION('',(0.,0.,1.));
#1033=DIRECTION('',(0.,0.,1.));
#1034=DIRECTION('',(0.,0.,1.));
#1035=DIRECTION('',(0.,0.,1.));
#1036=DIRECTION('',(0.0858414827856261,0.981172637986292,-0.173007208809883));
#1037=DIRECTION('',(0.0858414827856261,0.981172637986292,0.173007208809883));
#1038=DIRECTION('center_axis',(-0.984807753012208,-0.173648177666931,0.));
#1039=DIRECTION('ref_axis',(0.,0.,1.));
#1040=DIRECTION('',(-0.171087869746036,0.970287525247814,0.171087869746036));
#1041=DIRECTION('',(0.,0.,1.));
#1042=DIRECTION('',(-0.173648177666931,0.984807753012208,0.));
#1043=DIRECTION('center_axis',(0.,-0.173648177666931,0.984807753012208));
#1044=DIRECTION('ref_axis',(1.,0.,0.));
#1045=DIRECTION('',(1.,0.,0.));
#1046=DIRECTION('center_axis',(0.,0.17364817766693,-0.984807753012208));
#1047=DIRECTION('ref_axis',(-1.,0.,0.));
#1048=DIRECTION('',(0.171087869746036,0.970287525247814,0.171087869746036));
#1049=DIRECTION('',(1.,0.,0.));
#1050=DIRECTION('',(0.154114746164627,-0.973042212030672,-0.171573595349254));
#1051=DIRECTION('',(0.,-0.984807753012208,-0.17364817766693));
#1052=DIRECTION('center_axis',(-0.984807753012208,0.17364817766693,0.));
#1053=DIRECTION('ref_axis',(0.,0.,1.));
#1054=DIRECTION('',(0.,0.,1.));
#1055=DIRECTION('',(0.171087869746036,0.970287525247814,-0.171087869746036));
#1056=DIRECTION('',(0.,0.,-1.));
#1057=DIRECTION('center_axis',(0.,0.17364817766693,0.984807753012208));
#1058=DIRECTION('ref_axis',(1.,0.,0.));
#1059=DIRECTION('',(0.,0.984807753012208,-0.17364817766693));
#1060=DIRECTION('',(-0.154114746164627,0.973042212030672,-0.171573595349254));
#1061=DIRECTION('',(-1.,0.,0.));
#1062=DIRECTION('center_axis',(-1.,0.,0.));
#1063=DIRECTION('ref_axis',(0.,0.,-1.));
#1064=DIRECTION('',(0.,-1.,0.));
#1065=DIRECTION('',(0.,0.,-1.));
#1066=DIRECTION('center_axis',(4.14262322621327E-16,0.,1.));
#1067=DIRECTION('ref_axis',(-1.,0.,3.99680288865056E-16));
#1068=DIRECTION('',(1.,3.87345998593154E-16,-4.14262322621327E-16));
#1069=DIRECTION('',(-1.,1.93672999296577E-16,4.14262322621327E-16));
#1070=DIRECTION('center_axis',(4.14262322621327E-16,0.,1.));
#1071=DIRECTION('ref_axis',(-0.926006786030695,-0.377506863811908,0.));
#1072=DIRECTION('center_axis',(-4.14262322621327E-16,0.,-1.));
#1073=DIRECTION('ref_axis',(-0.926006786030695,-0.37750686381191,0.));
#1074=DIRECTION('',(-1.,3.11755959356182E-17,4.14262322621327E-16));
#1075=DIRECTION('',(0.,-1.,0.));
#1076=DIRECTION('',(1.,-2.9163299760492E-16,-4.14262322621327E-16));
#1077=DIRECTION('center_axis',(4.14262322621327E-16,0.,1.));
#1078=DIRECTION('ref_axis',(0.926006786030694,0.37750686381191,0.));
#1079=DIRECTION('center_axis',(-4.14262322621327E-16,0.,-1.));
#1080=DIRECTION('ref_axis',(0.926006786030694,0.37750686381191,0.));
#1081=DIRECTION('center_axis',(0.,0.,-1.));
#1082=DIRECTION('ref_axis',(1.,0.,0.));
#1083=DIRECTION('',(-1.,2.9163299760492E-16,0.));
#1084=DIRECTION('',(0.,1.,0.));
#1085=DIRECTION('',(1.,-3.11755959356182E-17,0.));
#1086=DIRECTION('center_axis',(0.,0.,1.));
#1087=DIRECTION('ref_axis',(-0.926006786030695,-0.37750686381191,0.));
#1088=DIRECTION('center_axis',(0.,0.,-1.));
#1089=DIRECTION('ref_axis',(-0.926006786030695,-0.377506863811908,0.));
#1090=DIRECTION('',(1.,-1.93672999296577E-16,0.));
#1091=DIRECTION('',(0.,1.,0.));
#1092=DIRECTION('',(-1.,-3.87345998593154E-16,0.));
#1093=DIRECTION('center_axis',(0.,0.,1.));
#1094=DIRECTION('ref_axis',(0.926006786030694,0.37750686381191,0.));
#1095=DIRECTION('center_axis',(0.,0.,-1.));
#1096=DIRECTION('ref_axis',(0.926006786030694,0.37750686381191,0.));
#1097=DIRECTION('center_axis',(-1.,0.,0.));
#1098=DIRECTION('ref_axis',(0.,0.,-1.));
#1099=DIRECTION('',(0.,0.,-1.));
#1100=DIRECTION('',(0.,-1.,0.));
#1101=DIRECTION('center_axis',(0.,0.,1.));
#1102=DIRECTION('ref_axis',(-1.,0.,0.));
#1103=DIRECTION('',(1.,3.87345998593154E-16,0.));
#1104=DIRECTION('',(-1.,1.93672999296577E-16,0.));
#1105=DIRECTION('center_axis',(0.,0.,1.));
#1106=DIRECTION('ref_axis',(-0.926006786030695,-0.377506863811908,0.));
#1107=DIRECTION('',(0.,-1.,0.));
#1108=DIRECTION('center_axis',(0.,0.,-1.));
#1109=DIRECTION('ref_axis',(0.926006786030694,0.37750686381191,0.));
#1110=DIRECTION('center_axis',(1.,0.,0.));
#1111=DIRECTION('ref_axis',(0.,0.,1.));
#1112=DIRECTION('',(0.,0.,-1.));
#1113=DIRECTION('',(0.,0.,1.));
#1114=DIRECTION('',(0.,-1.,0.));
#1115=DIRECTION('center_axis',(0.,0.,-1.));
#1116=DIRECTION('ref_axis',(1.,0.,0.));
#1117=DIRECTION('center_axis',(0.,0.,1.));
#1118=DIRECTION('ref_axis',(0.926006786030694,0.37750686381191,0.));
#1119=DIRECTION('center_axis',(0.,0.,-1.));
#1120=DIRECTION('ref_axis',(-0.926006786030695,-0.377506863811908,0.));
#1121=DIRECTION('',(1.,-1.93672999296577E-16,0.));
#1122=DIRECTION('',(0.,1.,0.));
#1123=DIRECTION('',(-1.,-3.87345998593154E-16,0.));
#1124=DIRECTION('center_axis',(-1.,0.,0.));
#1125=DIRECTION('ref_axis',(0.,0.,-1.));
#1126=DIRECTION('',(0.,0.,-1.));
#1127=DIRECTION('',(0.,-1.,0.));
#1128=DIRECTION('center_axis',(2.07131161310664E-16,0.,1.));
#1129=DIRECTION('ref_axis',(-1.,0.,1.99840144432528E-16));
#1130=DIRECTION('',(1.,3.87345998593154E-16,-2.07131161310664E-16));
#1131=DIRECTION('',(-1.,1.93672999296577E-16,2.07131161310664E-16));
#1132=DIRECTION('center_axis',(2.07131161310664E-16,0.,1.));
#1133=DIRECTION('ref_axis',(-0.926006786030695,-0.377506863811908,0.));
#1134=DIRECTION('center_axis',(-2.07131161310664E-16,0.,-1.));
#1135=DIRECTION('ref_axis',(-0.926006786030695,-0.37750686381191,0.));
#1136=DIRECTION('',(-1.,3.11755959356182E-17,2.07131161310664E-16));
#1137=DIRECTION('',(0.,-1.,0.));
#1138=DIRECTION('',(1.,-2.9163299760492E-16,-2.07131161310664E-16));
#1139=DIRECTION('center_axis',(2.07131161310664E-16,0.,1.));
#1140=DIRECTION('ref_axis',(0.926006786030694,0.37750686381191,0.));
#1141=DIRECTION('center_axis',(-2.07131161310664E-16,0.,-1.));
#1142=DIRECTION('ref_axis',(0.926006786030694,0.37750686381191,0.));
#1143=DIRECTION('center_axis',(0.,0.,-1.));
#1144=DIRECTION('ref_axis',(1.,0.,0.));
#1145=DIRECTION('',(-1.,2.9163299760492E-16,0.));
#1146=DIRECTION('',(0.,1.,0.));
#1147=DIRECTION('',(1.,-3.11755959356182E-17,0.));
#1148=DIRECTION('center_axis',(0.,0.,1.));
#1149=DIRECTION('ref_axis',(-0.926006786030695,-0.37750686381191,0.));
#1150=DIRECTION('center_axis',(0.,0.,-1.));
#1151=DIRECTION('ref_axis',(-0.926006786030695,-0.377506863811908,0.));
#1152=DIRECTION('',(1.,-1.93672999296577E-16,0.));
#1153=DIRECTION('',(0.,1.,0.));
#1154=DIRECTION('',(-1.,-3.87345998593154E-16,0.));
#1155=DIRECTION('center_axis',(0.,0.,1.));
#1156=DIRECTION('ref_axis',(0.926006786030694,0.37750686381191,0.));
#1157=DIRECTION('center_axis',(0.,0.,-1.));
#1158=DIRECTION('ref_axis',(0.926006786030694,0.37750686381191,0.));
#1159=DIRECTION('center_axis',(-1.,0.,0.));
#1160=DIRECTION('ref_axis',(0.,0.,-1.));
#1161=DIRECTION('',(0.,0.,-1.));
#1162=DIRECTION('center_axis',(1.,0.,0.));
#1163=DIRECTION('ref_axis',(0.,-1.,0.));
#1164=DIRECTION('',(0.,0.,-1.));
#1165=DIRECTION('',(0.,0.,-1.));
#1166=DIRECTION('center_axis',(1.,0.,0.));
#1167=DIRECTION('ref_axis',(0.,-1.,0.));
#1168=DIRECTION('',(0.,0.,-1.));
#1169=DIRECTION('',(0.,0.,-1.));
#1170=DIRECTION('center_axis',(2.9163299760492E-16,1.,0.));
#1171=DIRECTION('ref_axis',(1.,-2.94209101525666E-16,0.));
#1172=DIRECTION('',(0.,0.,-1.));
#1173=DIRECTION('center_axis',(2.9163299760492E-16,1.,0.));
#1174=DIRECTION('ref_axis',(1.,-2.94209101525666E-16,0.));
#1175=DIRECTION('',(0.,0.,-1.));
#1176=DIRECTION('center_axis',(0.,0.,-1.));
#1177=DIRECTION('ref_axis',(0.926006786030694,0.37750686381191,0.));
#1178=DIRECTION('',(0.,0.,-1.));
#1179=DIRECTION('center_axis',(0.,0.,-1.));
#1180=DIRECTION('ref_axis',(0.926006786030694,0.37750686381191,0.));
#1181=DIRECTION('',(0.,0.,-1.));
#1182=DIRECTION('center_axis',(-3.11755959356182E-17,-1.,0.));
#1183=DIRECTION('ref_axis',(-1.,3.11755959356182E-17,0.));
#1184=DIRECTION('',(0.,0.,-1.));
#1185=DIRECTION('center_axis',(0.,0.,-1.));
#1186=DIRECTION('ref_axis',(0.926006786030694,0.37750686381191,0.));
#1187=DIRECTION('',(0.,0.,-1.));
#1188=DIRECTION('center_axis',(0.,0.,-1.));
#1189=DIRECTION('ref_axis',(0.926006786030694,0.37750686381191,0.));
#1190=DIRECTION('',(0.,0.,-1.));
#1191=DIRECTION('center_axis',(0.,0.,-1.));
#1192=DIRECTION('ref_axis',(0.926006786030694,0.37750686381191,0.));
#1193=DIRECTION('',(0.,0.,-1.));
#1194=DIRECTION('center_axis',(0.,0.,-1.));
#1195=DIRECTION('ref_axis',(-0.926006786030695,-0.37750686381191,0.));
#1196=DIRECTION('',(0.,0.,-1.));
#1197=DIRECTION('center_axis',(-3.87345998593154E-16,1.,0.));
#1198=DIRECTION('ref_axis',(1.,3.77475828372553E-16,0.));
#1199=DIRECTION('',(0.,0.,-1.));
#1200=DIRECTION('center_axis',(-3.87345998593154E-16,1.,0.));
#1201=DIRECTION('ref_axis',(1.,3.77475828372553E-16,0.));
#1202=DIRECTION('',(0.,0.,-1.));
#1203=DIRECTION('center_axis',(-3.87345998593154E-16,1.,0.));
#1204=DIRECTION('ref_axis',(1.,3.77475828372553E-16,0.));
#1205=DIRECTION('',(0.,0.,-1.));
#1206=DIRECTION('center_axis',(0.,0.,-1.));
#1207=DIRECTION('ref_axis',(-0.926006786030695,-0.377506863811908,0.));
#1208=DIRECTION('',(0.,0.,-1.));
#1209=DIRECTION('center_axis',(0.,0.,-1.));
#1210=DIRECTION('ref_axis',(-0.926006786030695,-0.377506863811908,0.));
#1211=DIRECTION('',(0.,0.,-1.));
#1212=DIRECTION('center_axis',(-1.93672999296577E-16,-1.,0.));
#1213=DIRECTION('ref_axis',(-1.,1.88737914186277E-16,0.));
#1214=DIRECTION('center_axis',(-1.93672999296577E-16,-1.,0.));
#1215=DIRECTION('ref_axis',(-1.,1.88737914186277E-16,0.));
#1216=DIRECTION('center_axis',(0.,0.,-1.));
#1217=DIRECTION('ref_axis',(-0.926006786030695,-0.377506863811908,0.));
#1218=DIRECTION('',(0.,0.,-1.));
#1219=DIRECTION('',(0.,0.,-1.));
#1220=DIRECTION('center_axis',(0.,0.,-1.));
#1221=DIRECTION('ref_axis',(-0.926006786030695,-0.37750686381191,0.));
#1222=DIRECTION('',(0.,0.,-1.));
#1223=DIRECTION('center_axis',(-3.11755959356182E-17,-1.,0.));
#1224=DIRECTION('ref_axis',(-1.,3.11755959356182E-17,0.));
#1225=DIRECTION('center_axis',(-1.93672999296577E-16,-1.,0.));
#1226=DIRECTION('ref_axis',(-1.,1.88737914186277E-16,0.));
#1227=DIRECTION('center_axis',(0.987688340595138,0.156434465040231,0.));
#1228=DIRECTION('ref_axis',(0.,0.,-1.));
#1229=DIRECTION('',(0.,0.,1.));
#1230=DIRECTION('center_axis',(0.,0.,1.));
#1231=DIRECTION('ref_axis',(1.,0.,0.));
#1232=DIRECTION('',(1.,0.,0.));
#1233=DIRECTION('',(0.,1.,0.));
#1234=DIRECTION('center_axis',(-1.,0.,-2.05596856412066E-16));
#1235=DIRECTION('ref_axis',(-1.77635683940025E-16,0.,1.));
#1236=DIRECTION('',(-2.05596856412066E-16,0.,1.));
#1237=DIRECTION('',(0.,1.,0.));
#1238=DIRECTION('center_axis',(0.,0.,-1.));
#1239=DIRECTION('ref_axis',(-1.,0.,0.));
#1240=DIRECTION('',(-1.,0.,0.));
#1241=DIRECTION('center_axis',(0.,1.,0.));
#1242=DIRECTION('ref_axis',(0.,0.,1.));
#1243=DIRECTION('center_axis',(0.,1.,0.));
#1244=DIRECTION('ref_axis',(0.,0.,1.));
#1245=CARTESIAN_POINT('',(0.,0.,0.));
#1246=CARTESIAN_POINT('Origin',(0.,0.,0.));
#1247=CARTESIAN_POINT('',(-2.95130571736238,0.,2.7));
#1248=CARTESIAN_POINT('',(-2.95130571736238,0.,-2.7));
#1249=CARTESIAN_POINT('',(-2.95130571736238,0.,3.50317674041251E-17));
#1250=CARTESIAN_POINT('',(-4.11,0.,2.7));
#1251=CARTESIAN_POINT('',(-4.11,0.,2.7));
#1252=CARTESIAN_POINT('',(-4.11,0.,-2.7));
#1253=CARTESIAN_POINT('',(-4.11,0.,-2.7));
#1254=CARTESIAN_POINT('',(-1.555,0.,-2.7));
#1255=CARTESIAN_POINT('Origin',(-3.03065285868119,0.45,-1.625));
#1256=CARTESIAN_POINT('',(-3.11,0.9,-3.25));
#1257=CARTESIAN_POINT('',(-2.95130571736238,0.,-3.09130571736238));
#1258=CARTESIAN_POINT('',(-2.94091795244707,-0.0589119423106886,-3.08091795244707));
#1259=CARTESIAN_POINT('',(-2.95130571736238,0.,-1.625));
#1260=CARTESIAN_POINT('',(-3.11,0.9,-2.7));
#1261=CARTESIAN_POINT('',(-2.99337189709232,0.238569160323171,-2.7));
#1262=CARTESIAN_POINT('',(-3.11,0.9,-1.625));
#1263=CARTESIAN_POINT('Origin',(0.,0.,0.));
#1264=CARTESIAN_POINT('',(3.02251133647408,0.,-3.09130571736238));
#1265=CARTESIAN_POINT('',(1.555,0.,-3.09130571736238));
#1266=CARTESIAN_POINT('',(3.02251133647408,0.,3.09130571736238));
#1267=CARTESIAN_POINT('',(3.02251133647408,0.,1.625));
#1268=CARTESIAN_POINT('',(-2.95130571736238,0.,3.09130571736238));
#1269=CARTESIAN_POINT('',(-1.555,0.,3.09130571736238));
#1270=CARTESIAN_POINT('',(-2.95130571736238,0.,-1.625));
#1271=CARTESIAN_POINT('Origin',(1.555,0.45,-3.17065285868119));
#1272=CARTESIAN_POINT('',(3.10125113364741,0.9,-3.25));
#1273=CARTESIAN_POINT('',(1.555,0.9,-3.25));
#1274=CARTESIAN_POINT('',(3.02284047309153,0.00376204875229719,-3.09196906806015));
#1275=CARTESIAN_POINT('Origin',(3.06625566823704,0.5,1.625));
#1276=CARTESIAN_POINT('',(3.11,1.,-3.23236730192915));
#1277=CARTESIAN_POINT('',(3.14517533917322,1.40205596651723,-3.16147398727735));
#1278=CARTESIAN_POINT('',(3.11,1.,-2.66));
#1279=CARTESIAN_POINT('',(3.11,1.,1.625));
#1280=CARTESIAN_POINT('',(3.11,1.,-1.91));
#1281=CARTESIAN_POINT('',(3.11,1.,1.625));
#1282=CARTESIAN_POINT('',(3.11,1.,-0.375));
#1283=CARTESIAN_POINT('',(3.11,1.,1.625));
#1284=CARTESIAN_POINT('',(3.11,1.,0.375));
#1285=CARTESIAN_POINT('',(3.11,1.,1.625));
#1286=CARTESIAN_POINT('',(3.11,1.,1.91));
#1287=CARTESIAN_POINT('',(3.11,1.,1.625));
#1288=CARTESIAN_POINT('',(3.11,1.,2.66));
#1289=CARTESIAN_POINT('',(3.11,1.,1.625));
#1290=CARTESIAN_POINT('',(3.11,1.,3.23236730192915));
#1291=CARTESIAN_POINT('',(3.11,1.,1.625));
#1292=CARTESIAN_POINT('',(3.10125113364741,0.9,3.25));
#1293=CARTESIAN_POINT('',(3.10958372469142,0.99524195145056,3.23320627426394));
#1294=CARTESIAN_POINT('',(3.03551524345448,0.148635336926204,3.11751413754916));
#1295=CARTESIAN_POINT('Origin',(-3.03065285868119,0.45,-1.625));
#1296=CARTESIAN_POINT('',(-3.11,0.9,3.25));
#1297=CARTESIAN_POINT('',(-2.93886897830487,-0.0705322521121946,3.07886897830487));
#1298=CARTESIAN_POINT('',(-3.11,0.9,2.7));
#1299=CARTESIAN_POINT('',(-3.11,0.9,-1.625));
#1300=CARTESIAN_POINT('',(-3.00844874189584,0.324074196154588,2.7));
#1301=CARTESIAN_POINT('Origin',(-1.555,0.45,3.17065285868119));
#1302=CARTESIAN_POINT('',(-1.555,0.9,3.25));
#1303=CARTESIAN_POINT('Origin',(1.555,1.6,-3.12657111350407));
#1304=CARTESIAN_POINT('',(-2.86314222700815,2.3,-3.00314222700815));
#1305=CARTESIAN_POINT('',(-2.89812652664153,2.10159417751713,-3.03812652664153));
#1306=CARTESIAN_POINT('',(2.98329244774037,2.3,-3.00314222700815));
#1307=CARTESIAN_POINT('',(1.555,2.3,-3.00314222700815));
#1308=CARTESIAN_POINT('',(3.11,1.5,-3.14420381157492));
#1309=CARTESIAN_POINT('',(2.99000409812185,2.25762430723797,-3.01061420496831));
#1310=CARTESIAN_POINT('',(3.11,2.48467515017928,-2.97057901536515));
#1311=CARTESIAN_POINT('Origin',(-2.98657111350407,1.6,-1.625));
#1312=CARTESIAN_POINT('',(-3.11,0.9,-1.625));
#1313=CARTESIAN_POINT('',(-2.86314222700815,2.3,3.00314222700815));
#1314=CARTESIAN_POINT('',(-2.89607755249934,2.11321448731863,3.03607755249934));
#1315=CARTESIAN_POINT('',(-2.86314222700815,2.3,-1.625));
#1316=CARTESIAN_POINT('Origin',(-1.555,1.6,3.12657111350407));
#1317=CARTESIAN_POINT('',(3.11,1.5,3.14420381157492));
#1318=CARTESIAN_POINT('',(3.11,1.92889241727507,3.06857850658805));
#1319=CARTESIAN_POINT('',(2.98329244774037,2.3,3.00314222700815));
#1320=CARTESIAN_POINT('',(2.99603902540025,2.219521275993,3.01733279742357));
#1321=CARTESIAN_POINT('',(-1.555,2.3,3.00314222700815));
#1322=CARTESIAN_POINT('Origin',(3.11,2.3,3.25));
#1323=CARTESIAN_POINT('',(3.11,1.5,2.66));
#1324=CARTESIAN_POINT('',(3.11,2.3,2.66));
#1325=CARTESIAN_POINT('',(3.11,1.5,1.625));
#1326=CARTESIAN_POINT('Origin',(5.79,2.3,2.66));
#1327=CARTESIAN_POINT('',(3.82655769561161,1.5,2.66));
#1328=CARTESIAN_POINT('',(4.45,1.5,2.66));
#1329=CARTESIAN_POINT('',(3.82655769561161,1.,2.66));
#1330=CARTESIAN_POINT('',(4.80827884780581,1.,2.66));
#1331=CARTESIAN_POINT('',(3.9726065174198,0.901821033608556,2.66));
#1332=CARTESIAN_POINT('Origin',(3.82655769561161,0.842281045872,2.66));
#1333=CARTESIAN_POINT('',(5.31413520000179,0.,2.66));
#1334=CARTESIAN_POINT('Origin',(5.31413520000179,1.44872446165585,2.66));
#1335=CARTESIAN_POINT('',(5.79,0.,2.66));
#1336=CARTESIAN_POINT('',(5.79,0.,2.66));
#1337=CARTESIAN_POINT('',(5.79,0.5,2.66));
#1338=CARTESIAN_POINT('',(5.79,1.4,2.66));
#1339=CARTESIAN_POINT('',(5.31413520000179,0.5,2.66));
#1340=CARTESIAN_POINT('',(5.5520676000009,0.5,2.66));
#1341=CARTESIAN_POINT('',(4.40571353635372,1.1106718211099,2.66));
#1342=CARTESIAN_POINT('Origin',(5.31413520000179,1.48100972622673,2.66));
#1343=CARTESIAN_POINT('Origin',(3.82655769561161,0.874566310442874,2.66));
#1344=CARTESIAN_POINT('Origin',(3.11,2.3,1.91));
#1345=CARTESIAN_POINT('',(5.79,0.5,1.91));
#1346=CARTESIAN_POINT('',(5.31413520000179,0.5,1.91));
#1347=CARTESIAN_POINT('',(4.21206760000089,0.5,1.91));
#1348=CARTESIAN_POINT('',(5.79,0.,1.91));
#1349=CARTESIAN_POINT('',(5.79,1.4,1.91));
#1350=CARTESIAN_POINT('',(5.31413520000179,0.,1.91));
#1351=CARTESIAN_POINT('',(4.45,0.,1.91));
#1352=CARTESIAN_POINT('',(3.9726065174198,0.901821033608556,1.91));
#1353=CARTESIAN_POINT('Origin',(5.31413520000179,1.44872446165585,1.91));
#1354=CARTESIAN_POINT('',(3.82655769561161,1.,1.91));
#1355=CARTESIAN_POINT('Origin',(3.82655769561161,0.842281045872,1.91));
#1356=CARTESIAN_POINT('',(3.46827884780581,1.,1.91));
#1357=CARTESIAN_POINT('',(3.11,1.5,1.91));
#1358=CARTESIAN_POINT('',(3.11,2.3,1.91));
#1359=CARTESIAN_POINT('',(3.82655769561161,1.5,1.91));
#1360=CARTESIAN_POINT('',(3.11,1.5,1.91));
#1361=CARTESIAN_POINT('',(4.40571353635372,1.1106718211099,1.91));
#1362=CARTESIAN_POINT('Origin',(3.82655769561161,0.874566310442874,1.91));
#1363=CARTESIAN_POINT('Origin',(5.31413520000179,1.48100972622673,1.91));
#1364=CARTESIAN_POINT('Origin',(3.11,2.3,3.25));
#1365=CARTESIAN_POINT('',(3.11,1.5,0.375));
#1366=CARTESIAN_POINT('',(3.11,1.5,1.625));
#1367=CARTESIAN_POINT('',(3.11,2.3,0.375));
#1368=CARTESIAN_POINT('Origin',(3.91,2.3,0.375));
#1369=CARTESIAN_POINT('',(3.82655769561161,1.5,0.375));
#1370=CARTESIAN_POINT('',(3.51,1.5,0.375));
#1371=CARTESIAN_POINT('',(3.82655769561161,1.,0.375));
#1372=CARTESIAN_POINT('',(3.86827884780581,1.,0.375));
#1373=CARTESIAN_POINT('',(3.91,0.976119195626043,0.375));
#1374=CARTESIAN_POINT('Origin',(3.82655769561161,0.842281045872,0.375));
#1375=CARTESIAN_POINT('',(3.91,1.49440877580919,0.375));
#1376=CARTESIAN_POINT('',(3.91,2.3,0.375));
#1377=CARTESIAN_POINT('Origin',(3.82655769561161,0.874566310442874,0.375));
#1378=CARTESIAN_POINT('Origin',(3.91,2.3,-0.375));
#1379=CARTESIAN_POINT('',(3.91,1.49440877580919,-0.375));
#1380=CARTESIAN_POINT('',(3.91,1.49440877580919,3.25));
#1381=CARTESIAN_POINT('',(3.91,0.976119195626043,-0.375));
#1382=CARTESIAN_POINT('',(3.91,0.976119195626043,3.25));
#1383=CARTESIAN_POINT('',(3.91,2.3,-0.375));
#1384=CARTESIAN_POINT('Origin',(3.11,2.3,-0.375));
#1385=CARTESIAN_POINT('',(3.82655769561161,1.5,-0.375));
#1386=CARTESIAN_POINT('Origin',(3.82655769561161,0.874566310442874,-0.375));
#1387=CARTESIAN_POINT('',(3.82655769561161,1.,-0.375));
#1388=CARTESIAN_POINT('Origin',(3.82655769561161,0.842281045872,-0.375));
#1389=CARTESIAN_POINT('',(3.46827884780581,1.,-0.375));
#1390=CARTESIAN_POINT('',(3.11,1.5,-0.375));
#1391=CARTESIAN_POINT('',(3.11,2.3,-0.375));
#1392=CARTESIAN_POINT('',(3.11,1.5,-0.375));
#1393=CARTESIAN_POINT('Origin',(3.11,2.3,3.25));
#1394=CARTESIAN_POINT('',(3.11,1.5,-1.91));
#1395=CARTESIAN_POINT('',(3.11,1.5,1.625));
#1396=CARTESIAN_POINT('',(3.11,2.3,-1.91));
#1397=CARTESIAN_POINT('Origin',(5.79,2.3,-1.91));
#1398=CARTESIAN_POINT('',(3.82655769561161,1.5,-1.91));
#1399=CARTESIAN_POINT('',(4.45,1.5,-1.91));
#1400=CARTESIAN_POINT('',(3.82655769561161,1.,-1.91));
#1401=CARTESIAN_POINT('',(4.80827884780581,1.,-1.91));
#1402=CARTESIAN_POINT('',(3.9726065174198,0.901821033608556,-1.91));
#1403=CARTESIAN_POINT('Origin',(3.82655769561161,0.842281045872,-1.91));
#1404=CARTESIAN_POINT('',(5.31413520000179,0.,-1.91));
#1405=CARTESIAN_POINT('Origin',(5.31413520000179,1.44872446165585,-1.91));
#1406=CARTESIAN_POINT('',(5.79,0.,-1.91));
#1407=CARTESIAN_POINT('',(5.79,0.,-1.91));
#1408=CARTESIAN_POINT('',(5.79,0.5,-1.91));
#1409=CARTESIAN_POINT('',(5.79,1.4,-1.91));
#1410=CARTESIAN_POINT('',(5.31413520000179,0.5,-1.91));
#1411=CARTESIAN_POINT('',(5.55206760000089,0.5,-1.91));
#1412=CARTESIAN_POINT('',(4.40571353635372,1.1106718211099,-1.91));
#1413=CARTESIAN_POINT('Origin',(5.31413520000179,1.48100972622673,-1.91));
#1414=CARTESIAN_POINT('Origin',(3.82655769561161,0.874566310442874,-1.91));
#1415=CARTESIAN_POINT('Origin',(3.11,2.3,-2.66));
#1416=CARTESIAN_POINT('',(5.79,0.5,-2.66));
#1417=CARTESIAN_POINT('',(5.31413520000179,0.5,-2.66));
#1418=CARTESIAN_POINT('',(4.21206760000089,0.5,-2.66));
#1419=CARTESIAN_POINT('',(5.79,0.,-2.66));
#1420=CARTESIAN_POINT('',(5.79,1.4,-2.66));
#1421=CARTESIAN_POINT('',(5.31413520000179,0.,-2.66));
#1422=CARTESIAN_POINT('',(4.45,0.,-2.66));
#1423=CARTESIAN_POINT('',(3.9726065174198,0.901821033608556,-2.66));
#1424=CARTESIAN_POINT('Origin',(5.31413520000179,1.44872446165585,-2.66));
#1425=CARTESIAN_POINT('',(3.82655769561161,1.,-2.66));
#1426=CARTESIAN_POINT('Origin',(3.82655769561161,0.842281045872,-2.66));
#1427=CARTESIAN_POINT('',(3.46827884780581,1.,-2.66));
#1428=CARTESIAN_POINT('',(3.11,1.5,-2.66));
#1429=CARTESIAN_POINT('',(3.11,2.3,-2.66));
#1430=CARTESIAN_POINT('',(3.82655769561161,1.5,-2.66));
#1431=CARTESIAN_POINT('',(3.11,1.5,-2.66));
#1432=CARTESIAN_POINT('',(4.40571353635372,1.1106718211099,-2.66));
#1433=CARTESIAN_POINT('Origin',(3.82655769561161,0.874566310442874,-2.66));
#1434=CARTESIAN_POINT('Origin',(5.31413520000179,1.48100972622673,-2.66));
#1435=CARTESIAN_POINT('Origin',(3.11,2.3,3.25));
#1436=CARTESIAN_POINT('',(3.11,1.5,1.625));
#1437=CARTESIAN_POINT('Origin',(5.79,0.5,3.25));
#1438=CARTESIAN_POINT('',(5.79,-1.4835368724728E-17,3.25));
#1439=CARTESIAN_POINT('',(5.79,0.5,3.25));
#1440=CARTESIAN_POINT('Origin',(5.79,0.5,3.25));
#1441=CARTESIAN_POINT('',(5.79,-1.4835368724728E-17,3.25));
#1442=CARTESIAN_POINT('',(5.79,0.5,3.25));
#1443=CARTESIAN_POINT('Origin',(5.31413520000179,0.5,3.25));
#1444=CARTESIAN_POINT('',(5.31413520000179,0.5,3.25));
#1445=CARTESIAN_POINT('Origin',(5.31413520000179,0.5,3.25));
#1446=CARTESIAN_POINT('',(5.31413520000179,0.5,3.25));
#1447=CARTESIAN_POINT('Origin',(5.31413520000179,1.48100972622673,3.25));
#1448=CARTESIAN_POINT('',(4.40571353635372,1.1106718211099,3.25));
#1449=CARTESIAN_POINT('Origin',(5.31413520000179,1.48100972622673,3.25));
#1450=CARTESIAN_POINT('',(4.40571353635372,1.1106718211099,3.25));
#1451=CARTESIAN_POINT('Origin',(5.79,-1.4835368724728E-17,3.25));
#1452=CARTESIAN_POINT('',(5.31413520000179,0.,3.25));
#1453=CARTESIAN_POINT('Origin',(3.82655769561161,0.874566310442874,3.25));
#1454=CARTESIAN_POINT('',(3.82655769561161,1.5,3.25));
#1455=CARTESIAN_POINT('Origin',(3.82655769561161,0.874566310442874,3.25));
#1456=CARTESIAN_POINT('',(3.82655769561161,1.5,3.25));
#1457=CARTESIAN_POINT('Origin',(3.82655769561161,0.874566310442874,3.25));
#1458=CARTESIAN_POINT('',(3.82655769561161,1.5,3.25));
#1459=CARTESIAN_POINT('Origin',(5.31413520000179,1.44872446165585,3.25));
#1460=CARTESIAN_POINT('',(3.9726065174198,0.901821033608556,3.25));
#1461=CARTESIAN_POINT('Origin',(3.11,1.5,3.25));
#1462=CARTESIAN_POINT('',(3.11,1.5,1.625));
#1463=CARTESIAN_POINT('Origin',(3.11,1.5,3.25));
#1464=CARTESIAN_POINT('',(3.11,1.5,1.625));
#1465=CARTESIAN_POINT('Origin',(3.11,1.5,3.25));
#1466=CARTESIAN_POINT('',(3.11,1.5,1.625));
#1467=CARTESIAN_POINT('Origin',(3.82655769561161,0.842281045872,3.25));
#1468=CARTESIAN_POINT('',(3.82655769561161,1.,3.25));
#1469=CARTESIAN_POINT('Origin',(3.82655769561161,0.842281045872,3.25));
#1470=CARTESIAN_POINT('',(3.82655769561161,1.,3.25));
#1471=CARTESIAN_POINT('Origin',(3.82655769561161,1.,3.25));
#1472=CARTESIAN_POINT('Origin',(3.82655769561161,1.,3.25));
#1473=CARTESIAN_POINT('Origin',(3.82655769561161,0.842281045872,3.25));
#1474=CARTESIAN_POINT('',(3.82655769561161,1.,3.25));
#1475=CARTESIAN_POINT('',(3.9726065174198,0.901821033608556,3.25));
#1476=CARTESIAN_POINT('Origin',(5.31413520000179,1.44872446165585,3.25));
#1477=CARTESIAN_POINT('',(5.31413520000179,0.,3.25));
#1478=CARTESIAN_POINT('Origin',(5.79,-1.4835368724728E-17,3.25));
#1479=CARTESIAN_POINT('Origin',(3.82655769561161,1.,3.25));
#1480=CARTESIAN_POINT('Origin',(3.04664622387019,1.9,1.625));
#1481=CARTESIAN_POINT('',(2.98329244774037,2.3,1.625));
#1482=CARTESIAN_POINT('Origin',(-4.11,0.,2.7));
#1483=CARTESIAN_POINT('',(-4.11,0.9,2.7));
#1484=CARTESIAN_POINT('',(-4.11,0.9,2.7));
#1485=CARTESIAN_POINT('',(-4.11,0.,2.7));
#1486=CARTESIAN_POINT('Origin',(-4.11,0.,-2.7));
#1487=CARTESIAN_POINT('',(-4.11,0.9,-2.7));
#1488=CARTESIAN_POINT('',(-4.11,0.9,-2.7));
#1489=CARTESIAN_POINT('',(-4.11,0.,-2.7));
#1490=CARTESIAN_POINT('Origin',(-3.11,0.,-2.7));
#1491=CARTESIAN_POINT('',(-3.11,0.9,-2.7));
#1492=CARTESIAN_POINT('Origin',(-3.61,0.9,0.));
#1493=CARTESIAN_POINT('Origin',(0.,2.3,0.));
#1494=UNCERTAINTY_MEASURE_WITH_UNIT(LENGTH_MEASURE(0.01),#1498,
'DISTANCE_ACCURACY_VALUE',
'Maximum model space distance between geometric entities at asserted c
onnectivities');
#1495=UNCERTAINTY_MEASURE_WITH_UNIT(LENGTH_MEASURE(1.E-6),#1498,
'DISTANCE_ACCURACY_VALUE',
'Maximum model space distance between geometric entities at asserted c
onnectivities');
#1496=(
GEOMETRIC_REPRESENTATION_CONTEXT(3)
GLOBAL_UNCERTAINTY_ASSIGNED_CONTEXT((#1494))
GLOBAL_UNIT_ASSIGNED_CONTEXT((#1498,#1501,#1499))
REPRESENTATION_CONTEXT('','3D')
);
#1497=(
GEOMETRIC_REPRESENTATION_CONTEXT(3)
GLOBAL_UNCERTAINTY_ASSIGNED_CONTEXT((#1495))
GLOBAL_UNIT_ASSIGNED_CONTEXT((#1498,#1501,#1499))
REPRESENTATION_CONTEXT('','3D')
);
#1498=(
LENGTH_UNIT()
NAMED_UNIT(*)
SI_UNIT(.MILLI.,.METRE.)
);
#1499=(
NAMED_UNIT(*)
SI_UNIT($,.STERADIAN.)
SOLID_ANGLE_UNIT()
);
#1500=DIMENSIONAL_EXPONENTS(0.,0.,0.,0.,0.,0.,0.);
#1501=(
CONVERSION_BASED_UNIT('degree',#1503)
NAMED_UNIT(#1500)
PLANE_ANGLE_UNIT()
);
#1502=(
NAMED_UNIT(*)
PLANE_ANGLE_UNIT()
SI_UNIT($,.RADIAN.)
);
#1503=PLANE_ANGLE_MEASURE_WITH_UNIT(PLANE_ANGLE_MEASURE(0.01745329252),
#1502);
#1504=SHAPE_DEFINITION_REPRESENTATION(#1505,#1506);
#1505=PRODUCT_DEFINITION_SHAPE('',$,#1508);
#1506=SHAPE_REPRESENTATION('',(#932),#1496);
#1507=PRODUCT_DEFINITION_CONTEXT('part definition',#1512,'design');
#1508=PRODUCT_DEFINITION('TO252','TO252',#1509,#1507);
#1509=PRODUCT_DEFINITION_FORMATION('',$,#1514);
#1510=PRODUCT_RELATED_PRODUCT_CATEGORY('TO252','TO252',(#1514));
#1511=APPLICATION_PROTOCOL_DEFINITION('international standard',
'automotive_design',2009,#1512);
#1512=APPLICATION_CONTEXT(
'Core Data for Automotive Mechanical Design Process');
#1513=PRODUCT_CONTEXT('part definition',#1512,'mechanical');
#1514=PRODUCT('TO252','TO252',$,(#1513));
#1515=PRESENTATION_STYLE_ASSIGNMENT((#1518));
#1516=PRESENTATION_STYLE_ASSIGNMENT((#1519));
#1517=PRESENTATION_STYLE_ASSIGNMENT((#1520));
#1518=SURFACE_STYLE_USAGE(.BOTH.,#1521);
#1519=SURFACE_STYLE_USAGE(.BOTH.,#1522);
#1520=SURFACE_STYLE_USAGE(.BOTH.,#1523);
#1521=SURFACE_SIDE_STYLE('',(#1524));
#1522=SURFACE_SIDE_STYLE('',(#1525));
#1523=SURFACE_SIDE_STYLE('',(#1526));
#1524=SURFACE_STYLE_FILL_AREA(#1527);
#1525=SURFACE_STYLE_FILL_AREA(#1528);
#1526=SURFACE_STYLE_FILL_AREA(#1529);
#1527=FILL_AREA_STYLE('',(#1530));
#1528=FILL_AREA_STYLE('',(#1531));
#1529=FILL_AREA_STYLE('',(#1532));
#1530=FILL_AREA_STYLE_COLOUR('',#1533);
#1531=FILL_AREA_STYLE_COLOUR('',#1534);
#1532=FILL_AREA_STYLE_COLOUR('',#1535);
#1533=COLOUR_RGB('',0.749019607843137,0.749019607843137,0.749019607843137);
#1534=COLOUR_RGB('',0.772549019607843,0.780392156862745,0.733333333333333);
#1535=COLOUR_RGB('',0.250980392156863,0.250980392156863,0.250980392156863);
ENDSEC;
END-ISO-10303-21;
